%time,field.layout.data_offset,field.data0,field.data1,field.data2
1558364096165558099,0,0.649999976158,-1.20731699467,0.0
1558364096185103893,0,0.649999976158,-1.20731699467,0.0
1558364096206351995,0,0.649999976158,-1.20731699467,0.0
1558364096225210905,0,0.649999976158,-1.20731699467,0.0
1558364096245131969,0,0.649999976158,-1.21829271317,0.0
1558364096265337944,0,0.649999976158,-1.21829271317,0.0
1558364096285188913,0,0.649999976158,-1.21829271317,0.0
1558364096305464029,0,0.649999976158,-1.21829271317,0.0
1558364096325233936,0,0.649999976158,-1.21829271317,0.0
1558364096345102071,0,0.649999976158,-1.20731699467,0.0
1558364096365545988,0,0.649999976158,-1.20731699467,0.0
1558364096385407924,0,0.649999976158,-1.20731699467,0.0
1558364096405318021,0,0.649999976158,-1.20731699467,0.0
1558364096425132989,0,0.649999976158,-1.20731699467,0.0
1558364096445472002,0,0.649999976158,-1.27317070961,0.0
1558364096465348005,0,0.649999976158,-1.27317070961,0.0
1558364096485369920,0,0.649999976158,-1.27317070961,0.0
1558364096505187988,0,0.649999976158,-1.27317070961,0.0
1558364096525192975,0,0.649999976158,-1.27317070961,0.0
1558364096545378923,0,0.649999976158,-1.25121951103,0.0
1558364096565335988,0,0.649999976158,-1.25121951103,0.0
1558364096585916042,0,0.649999976158,-1.25121951103,0.0
1558364096605606079,0,0.649999976158,-1.25121951103,0.0
1558364096625349998,0,0.649999976158,-1.25121951103,0.0
1558364096645510911,0,0.649999976158,-1.22926831245,0.0
1558364096665240049,0,0.649999976158,-1.22926831245,0.0
1558364096685445070,0,0.649999976158,-1.22926831245,0.0
1558364096705326080,0,0.649999976158,-1.22926831245,0.0
1558364096725430011,0,0.649999976158,-1.22926831245,0.0
1558364096745410919,0,0.649999976158,-1.21829271317,0.0
1558364096765594005,0,0.649999976158,-1.21829271317,0.0
1558364096785624980,0,0.649999976158,-1.21829271317,0.0
1558364096805433034,0,0.649999976158,-1.21829271317,0.0
1558364096825270891,0,0.649999976158,-1.21829271317,0.0
1558364096845221996,0,0.649999976158,-1.22926831245,0.0
1558364096865372896,0,0.649999976158,-1.22926831245,0.0
1558364096885401964,0,0.649999976158,-1.22926831245,0.0
1558364096905440092,0,0.649999976158,-1.22926831245,0.0
1558364096925369024,0,0.649999976158,-1.22926831245,0.0
1558364096945348978,0,0.649999976158,-1.25121951103,0.0
1558364096965487003,0,0.649999976158,-1.25121951103,0.0
1558364096985357999,0,0.649999976158,-1.25121951103,0.0
1558364097005475044,0,0.649999976158,-1.25121951103,0.0
1558364097025315046,0,0.649999976158,-1.25121951103,0.0
1558364097045422077,0,0.649999976158,-1.26219511032,0.0
1558364097065278053,0,0.649999976158,-1.26219511032,0.0
1558364097085580110,0,0.649999976158,-1.26219511032,0.0
1558364097105312108,0,0.649999976158,-1.26219511032,0.0
1558364097125560998,0,0.649999976158,-1.26219511032,0.0
1558364097145452022,0,0.649999976158,-1.26219511032,0.0
1558364097165249109,0,0.649999976158,-1.26219511032,0.0
1558364097185328006,0,0.649999976158,-1.26219511032,0.0
1558364097205368995,0,0.649999976158,-1.26219511032,0.0
1558364097225357055,0,0.649999976158,-1.22926831245,0.0
1558364097245269060,0,0.649999976158,-1.22926831245,0.0
1558364097265388965,0,0.649999976158,-1.22926831245,0.0
1558364097285446882,0,0.649999976158,-1.22926831245,0.0
1558364097305310964,0,0.649999976158,-1.22926831245,0.0
1558364097325226068,0,0.649999976158,-1.21829271317,0.0
1558364097345545053,0,0.649999976158,-1.21829271317,0.0
1558364097365233898,0,0.649999976158,-1.21829271317,0.0
1558364097385441064,0,0.649999976158,-1.21829271317,0.0
1558364097405237913,0,0.649999976158,-1.21829271317,0.0
1558364097425266981,0,0.649999976158,-1.20731699467,0.0
1558364097445327043,0,0.649999976158,-1.20731699467,0.0
1558364097465378999,0,0.649999976158,-1.20731699467,0.0
1558364097485328912,0,0.649999976158,-1.20731699467,0.0
1558364097505239009,0,0.649999976158,-1.20731699467,0.0
1558364097525228023,0,0.649999976158,-1.20731699467,0.0
1558364097545372009,0,0.649999976158,-1.20731699467,0.0
1558364097565392017,0,0.649999976158,-1.20731699467,0.0
1558364097585325956,0,0.649999976158,-1.20731699467,0.0
1558364097605283021,0,0.649999976158,-1.20731699467,0.0
1558364097625379085,0,0.649999976158,-1.21829271317,0.0
1558364097645308017,0,0.649999976158,-1.21829271317,0.0
1558364097665282964,0,0.649999976158,-1.21829271317,0.0
1558364097685214042,0,0.649999976158,-1.21829271317,0.0
1558364097705153942,0,0.649999976158,-1.21829271317,0.0
1558364097725367069,0,0.649999976158,-1.24024391174,0.0
1558364097745326995,0,0.649999976158,-1.24024391174,0.0
1558364097765333890,0,0.649999976158,-1.24024391174,0.0
1558364097785253047,0,0.649999976158,-1.24024391174,0.0
1558364097805349111,0,0.649999976158,-1.24024391174,0.0
1558364097825153112,0,0.649999976158,-1.24024391174,0.0
1558364097845263004,0,0.649999976158,-1.24024391174,0.0
1558364097865427970,0,0.649999976158,-1.24024391174,0.0
1558364097885230064,0,0.649999976158,-1.24024391174,0.0
1558364097905471086,0,0.649999976158,-1.24024391174,0.0
1558364097925412893,0,0.649999976158,-1.21829271317,0.0
1558364097945286989,0,0.649999976158,-1.21829271317,0.0
1558364097965409040,0,0.649999976158,-1.21829271317,0.0
1558364097985168933,0,0.649999976158,-1.21829271317,0.0
1558364098005497932,0,0.649999976158,-1.24024391174,0.0
1558364098025156021,0,0.649999976158,-1.24024391174,0.0
1558364098045192003,0,0.649999976158,-1.24024391174,0.0
1558364098065475940,0,0.649999976158,-1.24024391174,0.0
1558364098085273981,0,0.649999976158,-1.24024391174,0.0
1558364098105362892,0,0.649999976158,-1.22926831245,0.0
1558364098125471115,0,0.649999976158,-1.22926831245,0.0
1558364098145216941,0,0.649999976158,-1.22926831245,0.0
1558364098165208101,0,0.649999976158,-1.22926831245,0.0
1558364098185563087,0,0.649999976158,-1.22926831245,0.0
1558364098205281019,0,0.649999976158,-1.22926831245,0.0
1558364098225214004,0,0.649999976158,-1.22926831245,0.0
1558364098245184898,0,0.649999976158,-1.22926831245,0.0
1558364098265417098,0,0.649999976158,-1.22926831245,0.0
1558364098285244941,0,0.649999976158,-1.22926831245,0.0
1558364098305371046,0,0.649999976158,-1.25121951103,0.0
1558364113033341884,0,0.0,0.0,0.0
1558364113053426027,0,0.800000011921,-1.20731699467,0.0
1558364113073417901,0,0.800000011921,-1.20731699467,0.0
1558364113093261957,0,0.800000011921,-1.20731699467,0.0
1558364113113640069,0,0.800000011921,-1.20731699467,0.0
1558364113133308887,0,0.800000011921,-1.20731699467,0.0
1558364113153364896,0,0.800000011921,-1.20731699467,0.0
1558364113173501968,0,0.800000011921,-1.20731699467,0.0
1558364113193552017,0,0.800000011921,-1.20731699467,0.0
1558364113213399887,0,0.800000011921,-1.20731699467,0.0
1558364113233303070,0,0.800000011921,-1.24024391174,0.0
1558364113253353118,0,0.800000011921,-1.24024391174,0.0
1558364113273240089,0,0.800000011921,-1.24024391174,0.0
1558364113293658018,0,0.800000011921,-1.24024391174,0.0
1558364113313334941,0,0.800000011921,-1.24024391174,0.0
1558364113333204984,0,0.800000011921,-1.24024391174,0.0
1558364113353353023,0,0.800000011921,-1.24024391174,0.0
1558364113373338937,0,0.800000011921,-1.24024391174,0.0
1558364113393363952,0,0.800000011921,-1.24024391174,0.0
1558364113413419008,0,0.800000011921,-1.24024391174,0.0
1558364113433459043,0,0.800000011921,-1.24024391174,0.0
1558364113453332901,0,0.800000011921,-1.24024391174,0.0
1558364113473375082,0,0.800000011921,-1.24024391174,0.0
1558364113493365049,0,0.800000011921,-1.24024391174,0.0
1558364113513328075,0,0.800000011921,-1.24024391174,0.0
1558364113533277988,0,0.800000011921,-1.18536579609,0.0
1558364113553317070,0,0.800000011921,-1.18536579609,0.0
1558364113573328018,0,0.800000011921,-1.18536579609,0.0
1558364113593771934,0,0.800000011921,-1.18536579609,0.0
1558364113613390922,0,0.800000011921,-1.18536579609,0.0
1558364113633358955,0,0.800000011921,-1.24024391174,0.0
1558364113653562068,0,0.800000011921,-1.24024391174,0.0
1558364113673504114,0,0.800000011921,-1.24024391174,0.0
1558364113693435907,0,0.800000011921,-1.24024391174,0.0
1558364113713476896,0,0.800000011921,-1.24024391174,0.0
1558364113733261108,0,0.800000011921,-1.22926831245,0.0
1558364113753484964,0,0.800000011921,-1.22926831245,0.0
1558364113773402929,0,0.800000011921,-1.22926831245,0.0
1558364113793297052,0,0.800000011921,-1.22926831245,0.0
1558364113813452005,0,0.800000011921,-1.22926831245,0.0
1558364113833446025,0,0.800000011921,-1.24024391174,0.0
1558364113853581905,0,0.800000011921,-1.24024391174,0.0
1558364113873305082,0,0.800000011921,-1.24024391174,0.0
1558364113893421888,0,0.800000011921,-1.24024391174,0.0
1558364113913505077,0,0.800000011921,-1.24024391174,0.0
1558364113933301925,0,0.800000011921,-1.25121951103,0.0
1558364113953584909,0,0.800000011921,-1.25121951103,0.0
1558364113973484992,0,0.800000011921,-1.25121951103,0.0
1558364113993352890,0,0.800000011921,-1.25121951103,0.0
1558364114013782978,0,0.800000011921,-1.25121951103,0.0
1558364114033737897,0,0.800000011921,-1.27317070961,0.0
1558364114053728103,0,0.800000011921,-1.27317070961,0.0
1558364114073431015,0,0.800000011921,-1.27317070961,0.0
1558364114093579053,0,0.800000011921,-1.27317070961,0.0
1558364114113501071,0,0.800000011921,-1.27317070961,0.0
1558364114133479118,0,0.800000011921,-1.27317070961,0.0
1558364114153235912,0,0.800000011921,-1.27317070961,0.0
1558364114173598051,0,0.800000011921,-1.27317070961,0.0
1558364114193438053,0,0.800000011921,-1.27317070961,0.0
1558364114213675022,0,0.800000011921,-1.25121951103,0.0
1558364114233381986,0,0.800000011921,-1.25121951103,0.0
1558364114253449916,0,0.800000011921,-1.25121951103,0.0
1558364114273494005,0,0.800000011921,-1.25121951103,0.0
1558364114293688058,0,0.800000011921,-1.25121951103,0.0
1558364114313642978,0,0.800000011921,-1.24024391174,0.0
1558364114333343982,0,0.800000011921,-1.24024391174,0.0
1558364114353440046,0,0.800000011921,-1.24024391174,0.0
1558364114373317003,0,0.800000011921,-1.24024391174,0.0
1558364114393291950,0,0.800000011921,-1.24024391174,0.0
1558364114413536071,0,0.800000011921,-1.21829271317,0.0
1558364114433450937,0,0.800000011921,-1.21829271317,0.0
1558364114453536033,0,0.800000011921,-1.21829271317,0.0
1558364114473346948,0,0.800000011921,-1.21829271317,0.0
1558364114493369102,0,0.800000011921,-1.21829271317,0.0
1558364114513432979,0,0.800000011921,-1.21829271317,0.0
1558364114533405065,0,0.800000011921,-1.21829271317,0.0
1558364114553389072,0,0.800000011921,-1.21829271317,0.0
1558364114573402881,0,0.800000011921,-1.21829271317,0.0
1558364114593461990,0,0.800000011921,-1.21829271317,0.0
1558364114613405942,0,0.800000011921,-1.22926831245,0.0
1558364114633433103,0,0.800000011921,-1.22926831245,0.0
1558364114653240919,0,0.800000011921,-1.22926831245,0.0
1558364114673412084,0,0.800000011921,-1.22926831245,0.0
1558364114693389892,0,0.800000011921,-1.22926831245,0.0
1558364114713567018,0,0.800000011921,-1.25121951103,0.0
1558364114733300924,0,0.800000011921,-1.25121951103,0.0
1558364114753451108,0,0.800000011921,-1.25121951103,0.0
1558364114773256063,0,0.800000011921,-1.25121951103,0.0
1558364114793520927,0,0.800000011921,-1.25121951103,0.0
1558364114813541889,0,0.800000011921,-1.25121951103,0.0
1558364114833420038,0,0.800000011921,-1.25121951103,0.0
1558364114853310108,0,0.800000011921,-1.25121951103,0.0
1558364114873704910,0,0.800000011921,-1.25121951103,0.0
1558364114893312931,0,0.800000011921,-1.24024391174,0.0
1558364114913476943,0,0.800000011921,-1.24024391174,0.0
1558364114933341979,0,0.800000011921,-1.24024391174,0.0
1558364114953273057,0,0.800000011921,-1.24024391174,0.0
1558364114973211050,0,0.800000011921,-1.24024391174,0.0
1558364114993345022,0,0.800000011921,-1.21829271317,0.0
1558364115013207912,0,0.800000011921,-1.21829271317,0.0
1558364115033328056,0,0.800000011921,-1.21829271317,0.0
1558364115053421020,0,0.800000011921,-1.21829271317,0.0
1558364115073580980,0,0.800000011921,-1.21829271317,0.0
1558364115093492031,0,0.800000011921,-1.19634139538,0.0
1558364115113697052,0,0.800000011921,-1.19634139538,0.0
1558364115133382081,0,0.800000011921,-1.19634139538,0.0
1558364115153482913,0,0.800000011921,-1.19634139538,0.0
1558364115173388957,0,0.800000011921,-1.19634139538,0.0
1558364115193432092,0,0.800000011921,-1.19634139538,0.0
1558364115213632106,0,0.800000011921,-1.19634139538,0.0
1558364115233377933,0,0.800000011921,-1.19634139538,0.0
1558364115253341913,0,0.800000011921,-1.19634139538,0.0
1558364115273169040,0,0.800000011921,-1.19634139538,0.0
1558364115293452024,0,0.800000011921,-1.1743901968,0.0
1558364115313354969,0,0.800000011921,-1.1743901968,0.0
1558364115333726882,0,0.800000011921,-1.1743901968,0.0
