%time,field.now,field.pressure.layout.data_offset,field.pressure.data0,field.pressure.data1,field.pressure.data2,field.pressure.data3,field.pressure.data4,field.pressure.data5,field.pressure.data6,field.bending.layout.data_offset,field.bending.data0,field.bending.data1,field.bending.data2,field.state_est.layout.data_offset,field.state_est.data0,field.state_est.data1,field.state_est.data2,field.state_est.data3,field.state_est.data4,field.state_est.data5,field.state.layout.data_offset,field.state.data0,field.state.data1,field.state.data2,field.state.data3,field.state.data4,field.state.data5,field.output.layout.data_offset,field.output.data0,field.output.data1,field.output.data2,field.error.layout.data_offset,field.error.data0,field.error.data1,field.error.data2,field.error.data3,field.error.data4,field.error.data5,field.goal.position.x,field.goal.position.y,field.goal.position.z,field.goal.orientation.x,field.goal.orientation.y,field.goal.orientation.z,field.goal.orientation.w,field.tip.header.seq,field.tip.header.stamp,field.tip.header.frame_id,field.tip.poses0.position.x,field.tip.poses0.position.y,field.tip.poses0.position.z,field.tip.poses0.orientation.x,field.tip.poses0.orientation.y,field.tip.poses0.orientation.z,field.tip.poses0.orientation.w,field.tip.poses1.position.x,field.tip.poses1.position.y,field.tip.poses1.position.z,field.tip.poses1.orientation.x,field.tip.poses1.orientation.y,field.tip.poses1.orientation.z,field.tip.poses1.orientation.w,field.tip.poses2.position.x,field.tip.poses2.position.y,field.tip.poses2.position.z,field.tip.poses2.orientation.x,field.tip.poses2.orientation.y,field.tip.poses2.orientation.z,field.tip.poses2.orientation.w
1571829642022778987,1571829642022087097,0,0.137878907554,0.904921966621,0.0,0.3,0.0,0.0,0.3,0,45.4058018113,15.1920861572,-9.61958202165,0,-116.726456063,-25.2812827163,-4.28269018414,-8.15025824585,20.8858343284,-2.73822380768,0,66.0616237708,2.29611169921,58.770553982,1.16442307549,36.8333245602,1.07847013997,0,43.1058936929,10.7617219965,-10.1236468389,0,0.0333334783331,-0.0678289495681,0.0163653749441,-0.116234067837,-0.20396824949,-0.00659125640734,-0.891192160209,1.10106727065,0.0,0.0,0.0,0.0,1.0,0,0,,-0.229001454835,0.447676718431,0.0,0.0,0.0,0.385767429733,0.922596060124,-0.650430757099,0.748986327879,0.0,0.0,0.0,0.504280224488,0.863540071561,-0.997231696246,0.985027745102,0.0,0.0,0.0,0.430136625628,0.902763802605
1571829642042464017,1571829642042088985,0,0.145548702795,0.904921966621,0.0,0.3,0.0,0.0,0.3,0,44.8064684259,15.0760698362,-9.55080774594,0,-114.970140302,-23.9349105413,-4.10684590196,-7.70055351799,21.0918514835,-2.52117623233,0,66.0616237708,2.29611169921,58.770553982,1.16442307549,36.8333245602,1.07847013997,0,42.4934504309,10.3823880319,-10.0661626285,0,0.0314149855796,-0.0723002457348,0.0162901954925,-0.116373542824,-0.205233371831,-0.00682994300005,-0.891192160209,1.10106727065,0.0,0.0,0.0,0.0,1.0,0,0,,-0.226396023595,0.449499039082,0.0,0.0,0.0,0.380939292379,0.924600051656,-0.644306586696,0.755720186365,0.0,0.0,0.0,0.498882437822,0.866669667886,-0.988284937081,0.995868522399,0.0,0.0,0.0,0.425038608628,0.905175221256
1571829642062498092,1571829642062072038,0,0.153827429074,0.904921966621,0.0,0.3,0.0,0.0,0.3,0,44.1770583818,14.9528148819,-9.47766839755,0,-113.246533234,-22.6356567178,-3.65576235505,-7.21491509611,21.2857224617,-2.31346943846,0,66.0616237708,2.29611169921,58.770553982,1.16442307549,36.8333245602,1.07847013997,0,41.8887978966,10.1986499137,-9.99541067586,0,0.0297333853205,-0.077753971206,0.0161206270999,-0.115612184604,-0.207007226316,-0.00710343224242,-0.891192160209,1.10106727065,0.0,0.0,0.0,0.0,1.0,0,0,,-0.22364253985,0.451390892558,0.0,0.0,0.0,0.375857657875,0.926677409359,-0.637791670804,0.762731973564,0.0,0.0,0.0,0.493182118735,0.869926087527,-0.978749375125,1.00716271417,0.0,0.0,0.0,0.419666224713,0.907678500261
1571829642082489967,1571829642082066059,0,0.162682447147,0.904921966621,0.0,0.3,0.0,0.0,0.3,0,43.523116922,14.8231913391,-9.40066753224,0,-111.615221395,-21.4040774817,-3.29114780029,-6.78997363809,21.4636635148,-2.11777123305,0,66.0616237708,2.29611169921,58.770553982,1.16442307549,36.8333245602,1.07847013997,0,41.2892425184,9.98370809553,-9.91378582308,0,0.0304820461761,-0.0915014949476,0.0163181563595,-0.116236822945,-0.219850328698,-0.00785860378993,-0.891192160209,1.10106727065,0.0,0.0,0.0,0.0,1.0,0,0,,-0.220763180455,0.453332514949,0.0,0.0,0.0,0.370565968878,0.928806149156,-0.630932786431,0.769950876117,0.0,0.0,0.0,0.487225199663,0.873276362221,-0.968691085706,1.01879694354,0.0,0.0,0.0,0.414064441027,0.910247569992
1571829642102622032,1571829642102061033,0,0.172078845717,0.904921966621,0.0,0.3,0.0,0.0,0.3,0,42.8500391026,14.6880781073,-9.32031553253,0,-110.113341128,-20.2518237786,-3.36030826125,-6.43824842961,21.6238409991,-1.9354955091,0,66.0616237708,2.29611169921,58.770553982,1.16442307549,36.8333245602,1.07847013997,0,40.6931146565,9.43837873658,-9.82354973312,0,0.0280019441079,-0.0944423532157,0.0157749604823,-0.113082220965,-0.216278874632,-0.00791102208186,-0.891192160209,1.10106727065,0.0,0.0,0.0,0.0,1.0,0,0,,-0.217780054514,0.455305248403,0.0,0.0,0.0,0.365106840213,0.93096562516,-0.623777879104,0.777309428576,0.0,0.0,0.0,0.481057226315,0.876689195217,-0.958178407392,1.0306630112,0.0,0.0,0.0,0.408277544128,0.912857845977
1571829642122541904,1571829642122066020,0,0.181979579067,0.904921966621,0.0,0.3,0.0,0.0,0.3,0,42.1629980199,14.5483525284,-9.23712370027,0,-108.759571806,-19.183862292,-2.85938678874,-5.98774068821,21.7658530653,-1.76713210169,0,66.0616237708,2.29611169921,58.770553982,1.16442307549,36.8333245602,1.07847013997,0,40.0996264573,9.34402175725,-9.72670888366,0,0.0234771941776,-0.089238630363,0.014739386589,-0.107243106262,-0.201376533293,-0.00745644987976,-0.891192160209,1.10106727065,0.0,0.0,0.0,0.0,1.0,0,0,,-0.214714897952,0.457291800054,0.0,0.0,0.0,0.359521483282,0.933136808329,-0.616375402146,0.784744469398,0.0,0.0,0.0,0.474722754762,0.880135390785,-0.947281001762,1.04265943464,0.0,0.0,0.0,0.40234854533,0.915486563566
1571829642142456054,1571829642142070055,0,0.192345613122,0.904921966621,0.0,0.3,0.0,0.0,0.3,0,41.4668875107,14.4048809471,-9.15159885119,0,-107.558988899,-18.200525879,-2.257582197,-5.62834221582,21.8902655529,-1.6125348139,0,66.0616237708,2.29611169921,58.770553982,1.16442307549,36.8333245602,1.07847013997,0,39.508676512,9.56887050268,-9.62497383074,0,0.0298401745091,-0.125411917051,0.0158308270382,-0.111951929505,-0.240357846581,-0.00939642796904,-0.891192160209,1.10106727065,0.0,0.0,0.0,0.0,1.0,0,0,,-0.211588803647,0.45927642534,0.0,0.0,0.0,0.353849229332,0.935302476689,-0.608773675888,0.792197852093,0.0,0.0,0.0,0.468264833083,0.883588165436,-0.936068915586,1.05469260319,0.0,0.0,0.0,0.396318681124,0.918113012103
1571829642162431001,1571829642162059068,0,0.203136079335,0.904921966621,0.0,0.3,0.0,0.0,0.3,0,40.7662790824,14.2585103643,-9.06423848249,0,-106.50751597,-17.2991637131,-3.2810293856,-5.49896967897,21.9982400461,-1.47115049312,0,66.0616237708,2.29611169921,58.770553982,1.16442307549,36.8333245602,1.07847013997,0,38.9206773871,8.20074827022,-9.5197693969,0,0.0257455438524,-0.120256575131,0.0147673348883,-0.105583012133,-0.225707084156,-0.00890891520555,-0.891192160209,1.10106727065,0.0,0.0,0.0,0.0,1.0,0,0,,-0.208421991556,0.461245040342,0.0,0.0,0.0,0.348127153353,0.937447323906,-0.601020287018,0.799616921329,0.0,0.0,0.0,0.461724572399,0.887023347631,-0.92461167891,1.06667756241,0.0,0.0,0.0,0.390227011607,0.920718675499
1571829642182574033,1571829642182056903,0,0.214308435819,0.904921966621,0.0,0.3,0.0,0.0,0.3,0,40.0653922621,14.1100612525,-8.9755265592,0,-105.595494138,-16.4753630544,-2.40720573957,-4.94660595247,22.091257061,-1.34218943534,0,66.0616237708,2.29611169921,58.770553982,1.16442307549,36.8333245602,1.07847013997,0,38.3364197856,8.41008236688,-9.41227001915,0,-5.60379742609e-05,-0.0283691228065,0.00923019261023,-0.0766438790656,-0.0936698324017,-0.00339428516405,-0.891192160209,1.10106727065,0.0,0.0,0.0,0.0,1.0,0,0,,-0.205233621254,0.463185270484,0.0,0.0,0.0,0.342389795997,0.939557995867,-0.593161544972,0.806954773238,0.0,0.0,0.0,0.455140808092,0.890419476881,-0.912977468437,1.07853845662,0.0,0.0,0.0,0.38411011562,0.923287289568
1571829642202529907,1571829642202052116,0,0.225818635066,0.904921966621,0.0,0.3,0.0,0.0,0.3,0,39.3680771454,13.9603215635,-8.8859299419,0,-104.810309336,-15.7238016786,-2.10702838547,-4.86278390224,22.1709221188,-1.22474541154,0,66.0616237708,2.29611169921,58.770553982,1.16442307549,36.8333245602,1.07847013997,0,37.7569668172,12.016125131,-9.30344285003,0,0.0328003563865,-0.176813132402,0.015608049253,-0.108935830134,-0.272510223009,-0.011530450017,-0.891192160209,1.10106727065,0.0,0.0,0.0,0.0,1.0,0,0,,-0.202041647309,0.46508644465,0.0,0.0,0.0,0.336668977507,0.941623066617,-0.585242008178,0.814170325781,0.0,0.0,0.0,0.448549848551,0.893757815834,-0.901232359796,1.09020866893,0.0,0.0,0.0,0.378001877717,0.925804828483
1571829642222405910,1571829642222053050,0,0.237621297609,0.904921966621,0.0,0.3,0.0,0.0,0.3,0,38.6778076538,13.8100419142,-8.79589545694,0,-104.138201229,-15.0388139866,-4.74200850996,-4.90040271922,22.238837799,-1.117876051,0,66.0616237708,2.29611169921,58.770553982,1.16442307549,36.8333245602,1.07847013997,0,37.1835696811,6.44303746017,-9.1940889033,0,0.0174849413948,-0.113635879806,0.012169198127,-0.0887800012839,-0.19466489587,-0.00793441028435,-0.891192160209,1.10106727065,0.0,0.0,0.0,0.0,1.0,0,0,,-0.198862716287,0.466939544574,0.0,0.0,0.0,0.330993695044,0.943632965639,-0.577304088501,0.821228228814,0.0,0.0,0.0,0.441985306016,0.897022290284,-0.889439685589,1.10163070452,0.0,0.0,0.0,0.37193335946,0.928259433629
1571829642242389917,1571829642242053031,0,0.249669890933,0.904921966621,0.0,0.3,0.0,0.0,0.3,0,37.9976838784,13.6599319086,-8.70584759298,0,-103.565432065,-14.4147491392,-3.62920855419,-4.32746691568,22.296525198,-1.0206538671,0,66.0616237708,2.29611169921,58.770553982,1.16442307549,36.8333245602,1.07847013997,0,36.6175985343,8.65119250127,-9.08487800182,0,-0.0140342186428,0.0119520818576,0.00531109044521,-0.0525050468436,-0.0185165944133,-0.000679722522712,-0.891192160209,1.10106727065,0.0,0.0,0.0,0.0,1.0,0,0,,-0.195712102719,0.468737119448,0.0,0.0,0.0,0.325390093202,0.945579868253,-0.569387737817,0.828098644901,0.0,0.0,0.0,0.435478002041,0.900199372216,-0.877659509249,1.11275586561,0.0,0.0,0.0,0.365932745662,0.930641298059
1571829642262442111,1571829642262049913,0,0.261916912926,0.904921966621,0.0,0.3,0.0,0.0,0.3,0,37.3304418561,13.5106575266,-8.61618679209,0,-103.078987576,-13.8461848626,-3.62216718757,-4.32387889784,22.3453806002,-0.932196543641,0,66.0616237708,2.29611169921,58.770553982,1.16442307549,36.8333245602,1.07847013997,0,36.0604849279,13.5353931715,-8.97637652921,0,0.0166132430146,-0.125293221687,0.0112833159815,-0.0819859350187,-0.193987069252,-0.00813723950444,-0.891192160209,1.10106727065,0.0,0.0,0.0,0.0,1.0,0,0,,-0.19260368037,0.470473175192,0.0,0.0,0.0,0.319881496622,0.947457560062,-0.561530216683,0.834756931304,0.0,0.0,0.0,0.429055938767,0.90327792036,-0.865948218259,1.12354376564,0.0,0.0,0.0,0.360025355171,0.932942518933
1571829642282520055,1571829642282054901,0,0.274314079167,0.904921966621,0.0,0.3,0.0,0.0,0.3,0,36.6784691824,13.3628394911,-8.52728829333,0,-102.666953032,-13.3280446467,-4.31531245641,-4.09428655013,22.3866561016,-0.851683147568,0,66.0616237708,2.29611169921,58.770553982,1.16442307549,36.8333245602,1.07847013997,0,35.513673957,8.20131815343,-8.86906859271,0,0.0021338420142,-0.0598861628509,0.00792798502403,-0.0623110668174,-0.111458920982,-0.00451234216658,-0.891192160209,1.10106727065,0.0,0.0,0.0,0.0,1.0,0,0,,-0.18954992444,0.472143046926,0.0,0.0,0.0,0.314488493463,0.949261285147,-0.553765941675,0.841183251553,0.0,0.0,0.0,0.422744326462,0.906248991417,-0.854358234663,1.13396172772,0.0,0.0,0.0,0.354233705412,0.93515692905
1571829642302478075,1571829642302051067,0,0.286812513281,0.904921966621,0.0,0.3,0.0,0.0,0.3,0,36.0438249823,13.2170525121,-8.4395014778,0,-102.318674015,-12.8556523497,-4.16334963501,-3.95712144822,22.4214557398,-0.778361148384,0,66.0616237708,2.29611169921,58.770553982,1.16442307549,36.8333245602,1.07847013997,0,34.9785851835,10.5148559085,-8.76337180282,0,0.00810870672829,-0.0931892125466,0.0087962526707,-0.0659840370565,-0.146051483463,-0.00609860586476,-0.891192160209,1.10106727065,0.0,0.0,0.0,0.0,1.0,0,0,,-0.186561939942,0.473743262037,0.0,0.0,0.0,0.309229058861,0.950987586226,-0.546126405401,0.847362141883,0.0,0.0,0.0,0.41656565766,0.909105633498,-0.842937836273,1.14398410727,0.0,0.0,0.0,0.348577620044,0.937279916996
1571829642322653055,1571829642322060108,0,0.3,0.876429414266,0.0,0.3,0.0,0.0,0.3,0,34.2830420477,13.0666378168,-8.34881353695,0,-102.024781405,-12.4247476148,-4.25614978249,-3.76670240521,22.4507410546,-0.711547672701,0,66.0616237708,2.29611169921,58.770553982,1.16442307549,36.8333245602,1.07847013997,0,34.456581732,9.25518237967,-8.6596489413,0,0.00169799284633,-0.0778719950745,0.00759200297074,-0.0593351192624,-0.119444371416,-0.00514971061349,-0.891192160209,1.10106727065,0.0,0.0,0.0,0.0,1.0,0,0,,-0.178194400979,0.478051170412,0.0,0.0,0.0,0.294587955028,0.955624370112,-0.525535181366,0.863104974898,0.0,0.0,0.0,0.401353790835,0.915923105169,-0.812541965537,1.16923488621,0.0,0.0,0.0,0.333651336595,0.94269655011
1571829642342463970,1571829642342087984,0,0.312551745856,0.876429414266,0.0,0.3,0.0,0.0,0.3,0,33.7078128983,12.9266201801,-8.26428947296,0,-101.773519225,-12.0144682634,-4.20666851998,-3.61872235134,22.4789403611,-0.647757773016,0,66.0616237708,2.29611169921,58.770553982,1.16442307549,36.8333245602,1.07847013997,0,32.784601911,9.82107413442,-8.56314892239,0,0.00280705632072,-0.0818137538716,0.00711182922553,-0.0549251061077,-0.118787061409,-0.00514451776734,-0.891192160209,1.10106727065,0.0,0.0,0.0,0.0,1.0,0,0,,-0.17543672161,0.479416153287,0.0,0.0,0.0,0.289789635644,0.957090365155,-0.518350136089,0.868458684694,0.0,0.0,0.0,0.395631993478,0.918409127642,-0.801748354614,1.17794235017,0.0,0.0,0.0,0.328460253837,0.944517793188
1571829642362412929,1571829642362046957,0,0.325054005902,0.876429414266,0.0,0.3,0.0,0.0,0.3,0,33.1537255134,12.7901061061,-8.1817830124,0,-101.55028935,-11.6554771408,-4.20798322269,-3.47564641662,22.498811607,-0.592184203331,0,66.0616237708,2.29611169921,58.770553982,1.16442307549,36.8333245602,1.07847013997,0,32.3748367435,9.63079919586,-8.45558053421,0,0.00176105707794,-0.0770280970896,0.00650732288054,-0.0505496038805,-0.109668960513,-0.00477310280189,-0.891192160209,1.10106727065,0.0,0.0,0.0,0.0,1.0,0,0,,-0.172769458241,0.480711072739,0.0,0.0,0.0,0.285160772925,0.958479699099,-0.511368228863,0.873553416547,0.0,0.0,0.0,0.390092739201,0.920775572451,-0.791247475545,1.18623273841,0.0,0.0,0.0,0.323445991823,0.946246632952
1571829642382499933,1571829642382091045,0,0.337457489426,0.876429414266,0.0,0.3,0.0,0.0,0.3,0,32.6217277662,12.6574903304,-8.10154037714,0,-101.375557782,-11.328798982,-4.19447858583,-3.34889154777,22.5157751378,-0.541671162337,0,66.0616237708,2.29611169921,58.770553982,1.16442307549,36.8333245602,1.07847013997,0,31.9155707201,9.7277322838,-8.35860723067,0,0.0015922255292,-0.0766313154821,0.00610497178366,-0.0473725360939,-0.105617844715,-0.00462269111878,-0.891192160209,1.10106727065,0.0,0.0,0.0,0.0,1.0,0,0,,-0.170198579412,0.481935910365,0.0,0.0,0.0,0.280710178958,0.959792579378,-0.504608745909,0.878386952497,0.0,0.0,0.0,0.384748564538,0.923021420166,-0.78106973077,1.1941018745,0.0,0.0,0.0,0.318618780081,0.947882942657
1571829642402466058,1571829642402091026,0,0.34971329515,0.876429414266,0.0,0.3,0.0,0.0,0.3,0,32.1125719145,12.5291272716,-8.02378424279,0,-101.229675349,-11.0303024787,-4.19012812449,-3.22964131613,22.5300257726,-0.495563792586,0,66.0616237708,2.29611169921,58.770553982,1.16442307549,36.8333245602,1.07847013997,0,31.4732187156,9.671491457,-8.26561193417,0,0.0010528998895,-0.0733617730675,0.00563511323159,-0.0438039301276,-0.0988556267734,-0.00434162177321,-0.891192160209,1.10106727065,0.0,0.0,0.0,0.0,1.0,0,0,,-0.167729087727,0.483091148632,0.0,0.0,0.0,0.276445014344,0.961029736296,-0.498088491562,0.882959096732,0.0,0.0,0.0,0.379610106845,0.925146565027,-0.771241808404,1.20154888799,0.0,0.0,0.0,0.313987080634,0.949427255347
1571829642422442913,1571829642422080993,0,0.36177310402,0.876429414266,0.0,0.3,0.0,0.0,0.3,0,31.6268383484,12.4053333139,-7.94871491301,0,-101.10743483,-10.7574943961,-4.18256600203,-3.12169482439,22.5419022086,-0.453453265596,0,66.0616237708,2.29611169921,58.770553982,1.16442307549,36.8333245602,1.07847013997,0,31.0489664484,9.71072180175,-8.17594124812,0,0.000836556124373,-0.0715022103304,0.00524382653966,-0.040751908692,-0.093885813035,-0.00413833818325,-0.891192160209,1.10106727065,0.0,0.0,0.0,0.0,1.0,0,0,,-0.165365113528,0.484177672554,0.0,0.0,0.0,0.272370973793,0.962192315826,-0.491821965774,0.887271319429,0.0,0.0,0.0,0.374686284158,0.927151653433,-0.761786923188,1.20857564271,0.0,0.0,0.0,0.30955777499,0.950880636012
1571829642442531108,1571829642442054033,0,0.373589369708,0.876429414266,0.0,0.3,0.0,0.0,0.3,0,31.1649580943,12.2863892645,-7.87651161474,0,-101.005184665,-10.5081709147,-4.17814507566,-3.02177941325,22.5517575121,-0.414990512324,0,66.0616237708,2.29611169921,58.770553982,1.16442307549,36.8333245602,1.07847013997,0,30.6433306712,9.70093628753,-8.08965604942,0,0.000544914247058,-0.0686449054377,0.00484782550769,-0.0377001483809,-0.0881891809135,-0.00389775947074,-0.891192160209,1.10106727065,0.0,0.0,0.0,0.0,1.0,0,0,,-0.163110007847,0.485196681856,0.0,0.0,0.0,0.26849246468,0.963281784532,-0.485821552468,0.89132643348,0.0,0.0,0.0,0.369984472876,0.929037937778,-0.752725078663,1.21518621639,0.0,0.0,0.0,0.305336345725,0.952244567314
1571829642462452888,1571829642462089061,0,0.385115506067,0.876429414266,0.0,0.3,0.0,0.0,0.3,0,30.7272338631,12.1725429168,-7.80733387414,0,-100.919845968,-10.2803647644,-4.17342886816,-2.93057135347,22.559900974,-0.379866068431,0,66.0616237708,2.29611169921,58.770553982,1.16442307549,36.8333245602,1.07847013997,0,30.2569217108,9.72380254156,-8.00688266647,0,0.000377034148347,-0.0661280877168,0.00448936776642,-0.0349135331978,-0.0831249019395,-0.00368284949204,-0.891192160209,1.10106727065,0.0,0.0,0.0,0.0,1.0,0,0,,-0.160966432847,0.4861496135,0.0,0.0,0.0,0.264812776253,0.964299846279,-0.48009771291,0.895128304892,0.0,0.0,0.0,0.365510680213,0.930807145788,-0.744073341323,1.2213864332,0.0,0.0,0.0,0.301327050051,0.953520848701
1571829642482470035,1571829642482058048,0,0.396306070797,0.876429414266,0.0,0.3,0.0,0.0,0.3,0,30.3138595126,12.0640116604,-7.7413229381,0,-100.789893695,-9.88247978511,-4.16683506513,-2.7701913748,22.5720648111,-0.318561203877,0,66.0616237708,2.29611169921,58.770553982,1.16442307549,36.8333245602,1.07847013997,0,29.5438069394,9.75830798605,-7.8523195404,0,0.000220192419853,-0.0632719152405,0.0041447008714,-0.0322406626507,-0.0779855938049,-0.00346160813347,-0.891192160209,1.10106727065,0.0,0.0,0.0,0.0,1.0,0,0,,-0.15893644842,0.487038074167,0.0,0.0,0.0,0.261334238005,0.965248370134,-0.474659179264,0.898681596357,0.0,0.0,0.0,0.361269709156,0.932461365015,-0.735846118963,1.22718344861,0.0,0.0,0.0,0.297533083522,0.954711508368
1571829642502624034,1571829642502084970,0,0.407116944604,0.876429414266,0.0,0.3,0.0,0.0,0.3,0,29.92493787,11.9609850862,-7.67860321106,0,-100.789893695,-9.88247978511,-4.16683506513,-2.7701913748,22.5720648111,-0.318561203877,0,66.0616237708,2.29611169921,58.770553982,1.16442307549,36.8333245602,1.07847013997,0,29.5438069394,9.75830798605,-7.8523195404,0,0.000119136855936,-0.0604324525311,0.00382320490822,-0.0297404411764,-0.0731119076169,-0.00325007623037,-0.891192160209,1.10106727065,0.0,0.0,0.0,0.0,1.0,0,0,,-0.157021593978,0.487863782036,0.0,0.0,0.0,0.258058366247,0.966129328615,-0.469513144429,0.901991542617,0.0,0.0,0.0,0.357265314272,0.934002941761,-0.728055436857,1.23258538486,0.0,0.0,0.0,0.293956732699,0.955818727218
1571829642522701025,1571829642522108078,0,0.417505505143,0.876429414266,0.0,0.3,0.0,0.0,0.3,0,29.5604969075,11.8636275462,-7.6192836819,0,-100.741219925,-9.70944551783,-4.1643525475,-2.70015144784,22.5764974098,-0.291917882089,0,66.0616237708,2.29611169921,58.770553982,1.16442307549,36.8333245602,1.07847013997,0,29.2179068473,9.78192689469,-7.78071306819,0,4.40072311925e-05,-0.0574538689513,0.00351828933765,-0.027369046407,-0.0683313228445,-0.0030407258933,-0.891192160209,1.10106727065,0.0,0.0,0.0,0.0,1.0,0,0,,-0.155222964808,0.488628517124,0.0,0.0,0.0,0.254985998492,0.966944745357,-0.464665445155,0.905063755631,0.0,0.0,0.0,0.353500347298,0.935434393456,-0.720711206702,1.2376010138,0.0,0.0,0.0,0.290599516078,0.956844773856
1571829642542551994,1571829642542094945,0,0.427430795055,0.876429414266,0.0,0.3,0.0,0.0,0.3,0,29.2205043104,11.7720806347,-7.56345931961,0,-100.701219707,-9.55197945138,-4.16227668205,-2.63628147928,22.5800542352,-0.267680853034,0,66.0616237708,2.29611169921,58.770553982,1.16442307549,36.8333245602,1.07847013997,0,28.9128633301,9.81170551694,-7.71298748907,0,-9.47131262308e-08,-0.0544168664018,0.00323067064212,-0.0251297456844,-0.0637060696862,-0.00283673764478,-0.891192160209,1.10106727065,0.0,0.0,0.0,0.0,1.0,0,0,,-0.153541282598,0.489334079325,0.0,0.0,0.0,0.252117415579,0.967696651209,-0.460120736161,0.907904057145,0.0,0.0,0.0,0.34997689188,0.936758333376,-0.713821484448,1.24223948365,0.0,0.0,0.0,0.287462313032,0.957791949531
1571829642562597990,1571829642562091112,0,0.436853683449,0.876429414266,0.0,0.3,0.0,0.0,0.3,0,28.9048805026,11.6864655633,-7.51121242079,0,-100.668558193,-9.40897847529,-4.160602995,-2.57815139947,22.5828721232,-0.245677872957,0,66.0616237708,2.29611169921,58.770553982,1.16442307549,36.8333245602,1.07847013997,0,28.6289152108,9.84549232519,-7.64919976656,0,-2.2508650499e-05,-0.0512943579167,0.00295789154281,-0.0230049937544,-0.0591924091298,-0.00263641664056,-0.891192160209,1.10106727065,0.0,0.0,0.0,0.0,1.0,0,0,,-0.151976959989,0.489982253315,0.0,0.0,0.0,0.249452451808,0.968387047769,-0.455882653682,0.910518336103,0.0,0.0,0.0,0.346696387194,0.937977406501,-0.70739271417,1.24651008561,0.0,0.0,0.0,0.284545480835,0.958662541949
1571829642582551956,1571829642582091093,0,0.445737020173,0.876429414266,0.0,0.3,0.0,0.0,0.3,0,28.6135102141,11.6068854104,-7.46261389543,0,-100.642101561,-9.27946216071,-4.15925061889,-2.52541123507,22.5850679109,-0.225756004284,0,66.0616237708,2.29611169921,58.770553982,1.16442307549,36.8333245602,1.07847013997,0,28.3662524482,9.88462908373,-7.58939568197,0,-2.59736343544e-05,-0.048101812522,0.0026988249302,-0.0209859033484,-0.0547883942437,-0.00243994753291,-0.891192160209,1.10106727065,0.0,0.0,0.0,0.0,1.0,0,0,,-0.150530159151,0.490574779474,0.0,0.0,0.0,0.246990593527,0.969017877394,-0.451953967384,0.912912428224,0.0,0.0,0.0,0.343659740462,0.939094235306,-0.701429956009,1.25042205614,0.0,0.0,0.0,0.281848960075,0.959458786871
1571829642602653980,1571829642602056026,0,0.45404578228,0.876429414266,0.0,0.3,0.0,0.0,0.3,0,28.3462526903,11.5334272302,-7.41772448042,0,-100.620884355,-9.16256044887,-4.15817784433,-2.47773409555,22.5867417146,-0.207779640722,0,66.0616237708,2.29611169921,58.770553982,1.16442307549,36.8333245602,1.07847013997,0,28.1250249984,9.92903913547,-7.5336111549,0,-1.52509338491e-05,-0.0448351845095,0.00245185058922,-0.0190602905015,-0.050473414559,-0.00224664480353,-0.891192160209,1.10106727065,0.0,0.0,0.0,0.0,1.0,0,0,,-0.149200844511,0.491113330034,0.0,0.0,0.0,0.244731066786,0.969590998798,-0.448336720068,0.915092015178,0.0,0.0,0.0,0.340867428591,0.94011137432,-0.695937096928,1.25398441095,0.0,0.0,0.0,0.279372368927,0.960182836485
1571829642622714996,1571829642622087001,0,0.461747212111,0.876429414266,0.0,0.3,0.0,0.0,0.3,0,28.1029506448,11.4661640098,-7.37659587321,0,-100.604081978,-9.05750286505,-4.15733781677,-2.43483343288,22.5879797011,-0.191628780841,0,66.0616237708,2.29611169921,58.770553982,1.16442307549,36.8333245602,1.07847013997,0,27.9053512012,9.97925035337,-7.48187345041,0,6.07827121968e-06,-0.0414951036976,0.00221555480628,-0.0172173307167,-0.0462316428029,-0.00205602421754,-0.891192160209,1.10106727065,0.0,0.0,0.0,0.0,1.0,0,0,,-0.147988829857,0.4915994897,0.0,0.0,0.0,0.242672914745,0.970108167396,-0.445032354921,0.917062540842,0.0,0.0,0.0,0.338319589313,0.941031272321,-0.690917043624,1.25720580664,0.0,0.0,0.0,0.277115086894,0.96083673359
1571829642642579078,1571829642642086982,0,0.468810946438,0.876429414266,0.0,0.3,0.0,0.0,0.3,0,27.883438061,11.4051564691,-7.3392717797,0,-100.590987513,-8.96360909325,-4.1566929858,-2.39645299477,22.5888564343,-0.177197522168,0,66.0616237708,2.29611169921,58.770553982,1.16442307549,36.8333245602,1.07847013997,0,27.7073256184,10.0356126203,-7.43420227572,0,3.43593931085e-05,-0.0380780217357,0.00198847366351,-0.0154458752011,-0.0420434698167,-0.00186742021846,-0.891192160209,1.10106727065,0.0,0.0,0.0,0.0,1.0,0,0,,-0.146893820093,0.492034740067,0.0,0.0,0.0,0.24081506557,0.970571019655,-0.442041830359,0.918829142344,0.0,0.0,0.0,0.336016102309,0.941856241148,-0.686371897377,1.26009442635,0.0,0.0,0.0,0.275076328659,0.961422390738
1571829642662569999,1571829642662096023,0,0.475209136179,0.876429414266,0.0,0.3,0.0,0.0,0.3,0,27.6875469456,11.3504546982,-7.30578887293,0,-100.580992167,-8.88028076293,-4.15620939506,-2.36236674846,22.589436869,-0.164392750734,0,66.0616237708,2.29611169921,58.770553982,1.16442307549,36.8333245602,1.07847013997,0,27.531026284,10.0985875863,-7.39061076851,0,6.61854460127e-05,-0.0345792226741,0.00176917229755,-0.0137349957852,-0.0378883138641,-0.00168011846657,-0.891192160209,1.10106727065,0.0,0.0,0.0,0.0,1.0,0,0,,-0.145915447959,0.492420447231,0.0,0.0,0.0,0.239156391554,0.970981060772,-0.439365722674,0.920396593754,0.0,0.0,0.0,0.333956660838,0.942588430166,-0.682303110971,1.26265788611,0.0,0.0,0.0,0.273255208747,0.961941573534
1571829642682660102,1571829642682092905,0,0.480916556189,0.876429414266,0.0,0.3,0.0,0.0,0.3,0,27.5151131298,11.3020996313,-7.27617766008,0,-100.573568744,-8.80699431553,-4.15585760685,-2.33237589691,22.5897780527,-0.153133003873,0,66.0616237708,2.29611169921,58.770553982,1.16442307549,36.8333245602,1.07847013997,0,27.3765213507,10.1686551374,-7.35110637959,0,9.81906556063e-05,-0.0309918124053,0.00155620858422,-0.0120737574161,-0.0337435325237,-0.00149331285115,-0.891192160209,1.10106727065,0.0,0.0,0.0,0.0,1.0,0,0,,-0.145053306044,0.492757852039,0.0,0.0,0.0,0.237695760216,0.971339655103,-0.437004316892,0.921769260521,0.0,0.0,0.0,0.332140834469,0.94322980555,-0.678711628044,1.26490315869,0.0,0.0,0.0,0.271650797675,0.96239588742
1571829642702539920,1571829642702068090,0,0.485910704713,0.876429414266,0.0,0.3,0.0,0.0,0.3,0,27.3659812118,11.2601243576,-7.25046325654,0,-100.56825761,-8.74329483405,-4.1556117365,-2.30630712615,22.5899305872,-0.143347486826,0,66.0616237708,2.29611169921,58.770553982,1.16442307549,36.8333245602,1.07847013997,0,27.2438751353,10.2463501696,-7.31569165201,0,0.000127000920891,-0.027306934236,0.00134812913055,-0.0104512059673,-0.0295844601039,-0.00130611357285,-0.891192160209,1.10106727065,0.0,0.0,0.0,0.0,1.0,0,0,,-0.144306974419,0.493048062521,0.0,0.0,0.0,0.236432078033,0.97164801882,-0.434957686261,0.922951062949,0.0,0.0,0.0,0.330568123445,0.943782133631,-0.675598005418,1.26683651238,0.0,0.0,0.0,0.270262170257,0.962786767321
1571829642722661972,1571829642722069978,0,0.490171892101,0.876429414266,0.0,0.3,0.0,0.0,0.3,0,27.2400087193,11.2245552698,-7.22866606692,0,-100.564654728,-8.68879073402,-4.15544911924,-2.28401081639,22.5899398953,-0.134975226157,0,66.0616237708,2.29611169921,58.770553982,1.16442307549,36.8333245602,1.07847013997,0,27.1331535775,10.3322603765,-7.28436489955,0,0.000149129963933,-0.0235135874771,0.00114345264368,-0.00885627051694,-0.0253840167108,-0.00111753688525,-0.891192160209,1.10106727065,0.0,0.0,0.0,0.0,1.0,0,0,,-0.143676044206,0.493292048081,0.0,0.0,0.0,0.235364327481,0.971907214372,-0.433225760894,0.923945447246,0.0,0.0,0.0,0.32923800525,0.944246967641,-0.672962519008,1.26846346223,0.0,0.0,0.0,0.269088446684,0.963115469641
1571829642742609024,1571829642742098093,0,0.493683318435,0.876429414266,0.0,0.3,0.0,0.0,0.3,0,27.1370695701,11.1954130527,-7.21080237304,0,-100.56240138,-8.64314922766,-4.15534991251,-2.26535954865,22.5898473301,-0.127964345275,0,66.0616237708,2.29611169921,58.770553982,1.16442307549,36.8333245602,1.07847013997,0,27.0444291353,10.4270374421,-7.25712078684,0,0.000160877955402,-0.0195985025431,0.000940652300496,-0.00727766393815,-0.0211123136973,-0.000926495791198,-0.891192160209,1.10106727065,0.0,0.0,0.0,0.0,1.0,0,0,,-0.143160137381,0.493490635115,0.0,0.0,0.0,0.234491597931,0.972118146369,-0.431808386056,0.924755362862,0.0,0.0,0.0,0.328149973872,0.944625637302,-0.67080525398,1.26978873169,0.0,0.0,0.0,0.268128826937,0.963383066161
1571829642762471914,1571829642762084960,0,0.49643113976,0.876429414266,0.0,0.3,0.0,0.0,0.3,0,27.0570568906,11.1727135136,-7.19688482958,0,-100.561175269,-8.60609248514,-4.15529680756,-2.2502468007,22.5896911615,-0.122271449361,0,66.0616237708,2.29611169921,58.770553982,1.16442307549,36.8333245602,1.07847013997,0,26.9777851447,10.5314071378,-7.23395081393,0,0.000158212476453,-0.0155459438766,0.000738134631195,-0.00570376006426,-0.0167361219994,-0.000731785454455,-0.891192160209,1.10106727065,0.0,0.0,0.0,0.0,1.0,0,0,,-0.142758923057,0.493644503762,0.0,0.0,0.0,0.233813110931,0.972281558581,-0.430705370573,0.925383245047,0.0,0.0,0.0,0.32730357222,0.944919240788,-0.669126179793,1.270816223,0.0,0.0,0.0,0.267382619041,0.963590439468
1571829642782641887,1571829642782145023,0,0.498404522671,0.876429414266,0.0,0.3,0.0,0.0,0.3,0,26.9998852495,11.156468259,-7.18692286828,0,-100.560682707,-8.57739442822,-4.15527481016,-2.23858583709,22.589507467,-0.117861108764,0,66.0616237708,2.29611169921,58.770553982,1.16442307549,36.8333245602,1.07847013997,0,26.9333196706,10.6461827005,-7.21484370769,0,0.000136631372882,-0.0113374581501,0.000534213273617,-0.00412244773873,-0.0122182042039,-0.00053206541395,-0.891192160209,1.10106727065,0.0,0.0,0.0,0.0,1.0,0,0,,-0.142472130501,0.49375418555,0.0,0.0,0.0,0.233328240304,0.972398031814,-0.42991652582,0.925831001735,0.0,0.0,0.0,0.326698418106,0.945128638656,-0.667925210729,1.27154899483,0.0,0.0,0.0,0.266849261604,0.963738279608
1571829642802508115,1571829642802063941,0,0.499595687019,0.876429414266,0.0,0.3,0.0,0.0,0.3,0,26.9654923507,11.1466852169,-7.18092301139,0,-100.560651687,-8.55687810112,-4.15527110173,-2.23030877308,22.589330955,-0.114705431531,0,66.0616237708,2.29611169921,58.770553982,1.16442307549,36.8333245602,1.07847013997,0,26.9111488793,10.7722811858,-7.19978572243,0,9.09994635201e-05,-0.00695154870334,0.000327077409601,-0.00252095786468,-0.00751646909158,-0.000325836024828,-0.891192160209,1.10106727065,0.0,0.0,0.0,0.0,1.0,0,0,,-0.142299559055,0.493820061749,0.0,0.0,0.0,0.233036527412,0.972467982451,-0.429441695647,0.926100004061,0.0,0.0,0.0,0.326334224105,0.945254449436,-0.66720225243,1.27198924602,0.0,0.0,0.0,0.266528340966,0.963827081722
1571829642822501897,1571829642822088956,0,0.499999936586,0.876429414266,0.0,0.3,0.0,0.0,0.3,0,26.9538402189,11.1433690103,-7.17888909532,0,-100.560825596,-8.54441357234,-4.15527498593,-2.22536579779,22.5891957418,-0.112783717026,0,66.0616237708,2.29611169921,58.770553982,1.16442307549,36.8333245602,1.07847013997,0,26.9114099546,10.9107438533,-7.18876085194,0,1.53511536816e-05,-0.00236325841119,0.000114753861968,-0.000885656858962,-0.00258290115962,-0.00011140843803,-0.891192160209,1.10106727065,0.0,0.0,0.0,0.0,1.0,0,0,,-0.142241085127,0.493842362301,0.0,0.0,0.0,0.232937691872,0.972491661509,-0.429280777559,0.926191079956,0.0,0.0,0.0,0.326210811574,0.945297046654,-0.666957234867,1.27213830458,0.0,0.0,0.0,0.266419603281,0.963857144492
1571829642842391014,1571829642842051982,0,0.4996156776,0.876429414266,0.0,0.3,0.0,0.0,0.3,0,26.9649159033,11.1465211805,-7.18082240494,0,-100.560957425,-8.53991632921,-4.15527793191,-2.22372454079,22.5891361063,-0.112082183828,0,66.0616237708,2.29611169921,58.770553982,1.16442307549,36.8333245602,1.07847013997,0,26.9342635808,11.0627616891,-7.1817509549,0,-9.73533476056e-05,0.00245636261331,-0.000104941233481,0.000798201638119,0.00263780308707,0.000113133169499,-0.891192160209,1.10106727065,0.0,0.0,0.0,0.0,1.0,0,0,,-0.142296666358,0.493821165203,0.0,0.0,0.0,0.233031637935,0.972469154123,-0.429433735376,0.926104510436,0.0,0.0,0.0,0.326328119017,0.945256557099,-0.667190132055,1.2719966213,0.0,0.0,0.0,0.266522961697,0.963828569243
1571829642862456083,1571829642862087011,0,0.49844442502,0.876429414266,0.0,0.3,0.0,0.0,0.3,0,26.998731715,11.1561402627,-7.18672171912,0,-100.560804272,-8.54334613339,-4.15527373139,-2.22536956507,22.5891872419,-0.112593765999,0,66.0616237708,2.29611169921,58.770553982,1.16442307549,36.8333245602,1.07847013997,0,26.979896005,11.2297076412,-7.17873579541,0,-0.000255533594284,0.00754093655297,-0.000334461891516,0.00254677945399,0.00820998395934,0.000349980044945,-0.891192160209,1.10106727065,0.0,0.0,0.0,0.0,1.0,0,0,,-0.142466343018,0.493756396314,0.0,0.0,0.0,0.233318456623,0.97240037937,-0.429900603504,0.925840028381,0.0,0.0,0.0,0.3266862049,0.945132860252,-0.667900968721,1.27156376769,0.0,0.0,0.0,0.266838498778,0.96374125966
1571829642882415056,1571829642882049083,0,0.496490796559,0.876429414266,0.0,0.3,0.0,0.0,0.3,0,27.0553250015,11.1722217143,-7.19658326745,0,-100.560122015,-8.5547063118,-4.15525879477,-2.23030196769,22.5893860268,-0.114317972686,0,66.0616237708,2.29611169921,58.770553982,1.16442307549,36.8333245602,1.07847013997,0,27.04852069,11.4131777274,-7.17969300019,0,-0.000469378902412,0.0129296279239,-0.000576608150116,0.00437802685216,0.0142092854816,0.000601661120925,-0.891192160209,1.10106727065,0.0,0.0,0.0,0.0,1.0,0,0,,-0.142750236677,0.493647829543,0.0,0.0,0.0,0.233798423695,0.972285090433,-0.430681482879,0.925396819695,0.0,0.0,0.0,0.327285244973,0.944925588828,-0.669089813964,1.27083843791,0.0,0.0,0.0,0.267366464205,0.963594922059
1571829642902431011,1571829642902051925,0,0.493762494484,0.876429414266,0.0,0.3,0.0,0.0,0.3,0,27.1347574545,11.194757695,-7.21040059817,0,-100.55865999,-8.57404346294,-4.15523262258,-2.23853906515,22.5897718339,-0.117260806558,0,66.0616237708,2.29611169921,58.770553982,1.16442307549,36.8333245602,1.07847013997,0,27.1403795559,11.6150440399,-7.18459793381,0,-0.000751353457229,0.0186682649783,-0.000834624402923,0.00631214982505,0.0207256264817,0.000871122840529,-0.891192160209,1.10106727065,0.0,0.0,0.0,0.0,1.0,0,0,,-0.143148546114,0.493495087443,0.0,0.0,0.0,0.234471993384,0.972122875113,-0.431776528515,0.924773526953,0.0,0.0,0.0,0.328125524053,0.944634130479,-0.670756761877,1.26981845509,0.0,0.0,0.0,0.268107267713,0.963389066265
1571829642922594070,1571829642922096014,0,0.490270275247,0.876429414266,0.0,0.3,0.0,0.0,0.3,0,27.2371139374,11.2237366975,-7.22816435683,0,-100.556155526,-8.60144756229,-4.15519850367,-2.25011413422,22.5903874031,-0.121434737086,0,66.0616237708,2.29611169921,58.770553982,1.16442307549,36.8333245602,1.07847013997,0,27.2557438035,11.8375239385,-7.1934234932,0,-0.00111686169202,0.0248107955403,-0.00111232786315,0.00837220470729,0.0278671499432,0.00116183485055,-0.891192160209,1.10106727065,0.0,0.0,0.0,0.0,1.0,0,0,,-0.143661540394,0.493297642282,0.0,0.0,0.0,0.235339787788,0.97191315676,-0.433185928547,0.92396825573,0.0,0.0,0.0,0.329207422144,0.944257630737,-0.672901898913,1.26850078221,0.0,0.0,0.0,0.269061467139,0.96312300715
1571829642942426919,1571829642942060947,0,0.486027907075,0.876429414266,0.0,0.3,0.0,0.0,0.3,0,27.362500805,11.2591430286,-7.24986197509,0,-100.552328193,-8.63705245484,-4.15516451291,-2.26507616891,22.5912797989,-0.12685872481,0,66.0616237708,2.29611169921,58.770553982,1.16442307549,36.8333245602,1.07847013997,0,27.3949143024,12.0832716231,-7.20613982266,0,-0.00158513937532,0.03142119539,-0.00141428064815,0.01058486927,0.0357655528527,0.00147792933447,-0.891192160209,1.10106727065,0.0,0.0,0.0,0.0,1.0,0,0,,-0.144289549026,0.493054817664,0.0,0.0,0.0,0.236402581722,0.971655195713,-0.434909874525,0.922978584005,0.0,0.0,0.0,0.330531394733,0.943794997389,-0.675525257701,1.26688153815,0.0,0.0,0.0,0.270229751398,0.962795866972
1571829642962408065,1571829642962053060,0,0.481052115691,0.876429414266,0.0,0.3,0.0,0.0,0.3,0,27.5110436851,11.3009561368,-7.27547726885,0,-100.546873607,-8.68103672486,-4.1551449115,-2.28348959805,22.5925014806,-0.133558292784,0,66.0616237708,2.29611169921,58.770553982,1.16442307549,36.8333245602,1.07847013997,0,27.5582215142,12.3555011927,-7.2227139507,0,-0.00218046875,0.0385759996613,-0.0017460237034,0.012981461861,0.0445834063445,0.00182438928409,-0.891192160209,1.10106727065,0.0,0.0,0.0,0.0,1.0,0,0,,-0.145032949027,0.492765790864,0.0,0.0,0.0,0.237661282752,0.971348091407,-0.436948522666,0.921801575172,0.0,0.0,0.0,0.332097946962,0.943244906492,-0.678626756875,1.26495601997,0.0,0.0,0.0,0.271612918095,0.962406578699
1571829642982462882,1571829642982052087,0,0.475362518372,0.876429414266,0.0,0.3,0.0,0.0,0.3,0,27.6828846738,11.349149786,-7.30498994495,0,-100.539456603,-8.73362493477,-4.15516209649,-2.30543388254,22.5941115152,-0.141565641027,0,66.0616237708,2.29611169921,58.770553982,1.16442307549,36.8333245602,1.07847013997,0,27.7460249104,12.6581548511,-7.2431093503,0,-0.00293386969163,0.0463677022666,-0.00211440270848,0.0155993174156,0.0545244096317,0.00220730713707,-0.891192160209,1.10106727065,0.0,0.0,0.0,0.0,1.0,0,0,,-0.14589214872,0.492429596057,0.0,0.0,0.0,0.239116906051,0.970990785353,-0.439301945689,0.920433795365,0.0,0.0,0.0,0.333907601387,0.942605810366,-0.682206126405,1.26271873226,0.0,0.0,0.0,0.273211845415,0.96195389054
1571829643002489089,1571829643002053022,0,0.468981546606,0.876429414266,0.0,0.3,0.0,0.0,0.3,0,27.8781788936,11.4036910701,-7.33837501546,0,-100.529703606,-8.79508922561,-4.15524931019,-2.33100287096,22.5961769653,-0.150919799169,0,66.0616237708,2.29611169921,58.770553982,1.16442307549,36.8333245602,1.07847013997,0,27.958711832,12.9961372426,-7.26728542454,0,-0.00388550517316,0.0549093885249,-0.00252803109557,0.0184836895123,0.0658480754145,0.00263424735358,-0.891192160209,1.10106727065,0.0,0.0,0.0,0.0,1.0,0,0,,-0.146867568029,0.492045128664,0.0,0.0,0.0,0.240770543644,0.970582065213,-0.441970074777,0.918871335975,0.0,0.0,0.0,0.335960858882,0.941875947935,-0.686262817837,1.26016342528,0.0,0.0,0.0,0.27502745787,0.961436372007
1571829643022469043,1571829643022088050,0,0.461934357655,0.876429414266,0.0,0.3,0.0,0.0,0.3,0,28.0970903483,11.4645392693,-7.37560211915,0,-100.517193968,-8.86575126971,-4.15545441512,-2.36030372695,22.5987744933,-0.161666811411,0,66.0616237708,2.29611169921,58.770553982,1.16442307549,36.8333245602,1.07847013997,0,28.1966957213,13.3756489814,-7.29519692039,0,-0.00508819137934,0.064341142858,-0.00299796800718,0.02169044786,0.0788913007588,0.00311476620052,-0.891192160209,1.10106727065,0.0,0.0,0.0,0.0,1.0,0,0,,-0.147959615006,0.491611151121,0.0,0.0,0.0,0.242623327536,0.970120570308,-0.444952631211,0.917109842427,0.0,0.0,0.0,0.338258152278,0.941053357901,-0.69079589878,1.25728314341,0.0,0.0,0.0,0.2770606854,0.960852421866
1571829643042545080,1571829643042112112,0,0.454248735372,0.876429414266,0.0,0.3,0.0,0.0,0.3,0,28.3397870025,11.5316445433,-7.41663474966,0,-100.501450038,-8.94598456362,-4.15584518374,-2.39345513436,22.6019922234,-0.173859946257,0,66.0616237708,2.29611169921,58.770553982,1.16442307549,36.8333245602,1.07847013997,0,28.4604136393,13.8046730101,-7.32679327429,0,-0.00661266896795,0.074839055253,-0.00353873796932,0.0252900141273,0.0941009777877,0.00366117756112,-0.891192160209,1.10106727065,0.0,0.0,0.0,0.0,1.0,0,0,,-0.149168658307,0.491126300398,0.0,0.0,0.0,0.244676386152,0.969604798905,-0.448249047159,0.91514455049,0.0,0.0,0.0,0.340799792189,0.940135895307,-0.695803931014,1.25407028609,0.0,0.0,0.0,0.279312415255,0.960200278423
1571829643062427997,1571829643062064886,0,0.44595498066,0.876429414266,0.0,0.3,0.0,0.0,0.3,0,28.6064350019,11.6049464615,-7.4614293909,0,-100.481925678,-9.03621704283,-4.15651677207,-2.43058430453,22.6059319156,-0.187559921174,0,66.0616237708,2.29611169921,58.770553982,1.16442307549,36.8333245602,1.07847013997,0,28.7503229647,14.2937037189,-7.36201789446,0,-0.00855578856651,0.0866280778777,-0.00416992003149,0.0293732921097,0.112084958603,0.00428971402844,-0.891192160209,1.10106727065,0.0,0.0,0.0,0.0,1.0,0,0,,-0.15049499529,0.490589097688,0.0,0.0,0.0,0.246930793439,0.969033117727,-0.451858375116,0.912970331599,0.0,0.0,0.0,0.343585904509,0.939121252141,-0.701284831569,1.25051668345,0.0,0.0,0.0,0.281783436054,0.959478032665
1571829643082505941,1571829643082099914,0,0.437085792013,0.876429414266,0.0,0.3,0.0,0.0,0.3,0,28.8971919461,11.6843723692,-7.50993456069,0,-100.45799289,-9.1369339912,-4.15760238902,-2.47182199435,22.6107115085,-0.202835129175,0,66.0616237708,2.29611169921,58.770553982,1.16442307549,36.8333245602,1.07847013997,0,29.0668971476,14.8568753988,-7.40080738671,0,-0.0110537270004,0.100000619674,-0.0049187221185,0.0340609296545,0.133694843685,0.00502234984712,-0.891192160209,1.10106727065,0.0,0.0,0.0,0.0,1.0,0,0,,-0.151938815424,0.489997960723,0.0,0.0,0.0,0.249387509955,0.968403774197,-0.455779185555,0.910581748859,0.0,0.0,0.0,0.346616359011,0.938006982738,-0.707235716259,1.2466136896,0.0,0.0,0.0,0.284474373346,0.958683644853
1571829643102441072,1571829643102057933,0,0.427676136597,0.876429414266,0.0,0.3,0.0,0.0,0.3,0,29.2121991147,11.7698355927,-7.56208976503,0,-100.428926199,-9.24868120394,-4.15928871146,-2.517294175,22.616468098,-0.219761850008,0,66.0616237708,2.29611169921,58.770553982,1.16442307549,36.8333245602,1.07847013997,0,29.4106203656,15.5137747725,-7.44309073257,0,-0.0143043320744,0.115343608131,-0.00582435066843,0.0395183959556,0.160166721574,0.0058897757782,-0.891192160209,1.10106727065,0.0,0.0,0.0,0.0,1.0,0,0,,-0.153500158659,0.48935121927,0.0,0.0,0.0,0.252047315202,0.967714911996,-0.4600094524,0.907973125666,0.0,0.0,0.0,0.349890688474,0.936790534815,-0.713652725288,1.24235229634,0.0,0.0,0.0,0.287385616002,0.957814965281
1571829643122560024,1571829643122096061,0,0.417763112394,0.876429414266,0.0,0.3,0.0,0.0,0.3,0,29.5515725444,11.8612334852,-7.61782436661,0,-100.393884329,-9.37206834415,-4.16183844474,-2.56710792585,22.6233614287,-0.238424423027,0,66.0616237708,2.29611169921,58.770553982,1.16442307549,36.8333245602,1.07847013997,0,29.781980903,16.2924825029,-7.48878843119,0,-0.0186070471364,0.133177364381,-0.00694584799676,0.0459817247167,0.193373803259,0.00693648454231,-0.891192160209,1.10106727065,0.0,0.0,0.0,0.0,1.0,0,0,,-0.155178868469,0.488647134401,0.0,0.0,0.0,0.254910730472,0.966964590608,-0.464546426095,0.905138629036,0.0,0.0,0.0,0.353407997799,0.935469287092,-0.720530830799,1.23772327086,0.0,0.0,0.0,0.290517232728,0.95686975994
1571829643142473936,1571829643142102003,0,0.407385801936,0.876429414266,0.0,0.3,0.0,0.0,0.3,0,29.9153928537,11.9584453225,-7.67705637321,0,-100.351888698,-9.50777240588,-4.16562374354,-2.6213270389,22.6315779791,-0.258915351446,0,66.0616237708,2.29611169921,58.770553982,1.16442307549,36.8333245602,1.07847013997,0,30.1814630406,17.2349514229,-7.53781162012,0,-0.0244392165505,0.154207607228,-0.00837713191038,0.0538040035858,0.236310953827,0.00822994326022,-0.891192160209,1.10106727065,0.0,0.0,0.0,0.0,1.0,0,0,,-0.156974539264,0.487883922229,0.0,0.0,0.0,0.25797793146,0.966150809594,-0.469386494209,0.902072369978,0.0,0.0,0.0,0.357166862645,0.934040594529,-0.727863626561,1.23271732107,0.0,0.0,0.0,0.293868878074,0.955845742
1571829643162420988,1571829643162054061,0,0.396585118227,0.876429414266,0.0,0.3,0.0,0.0,0.3,0,30.3036937105,12.0613300558,-7.73969115364,0,-100.301798142,-9.65654116075,-4.17117609951,-2.67992850393,22.6413357314,-0.28133529824,0,66.0616237708,2.29611169921,58.770553982,1.16442307549,36.8333245602,1.07847013997,0,30.6095372061,18.4071442623,-7.59006119336,0,-0.0326147390317,0.179375242759,-0.0102783923595,0.0635451067321,0.294103906828,0.00987823924881,-0.891192160209,1.10106727065,0.0,0.0,0.0,0.0,1.0,0,0,,-0.158886457964,0.487059782837,0.0,0.0,0.0,0.261248649963,0.965271538424,-0.474525029825,0.898768523376,0.0,0.0,0.0,0.361165217192,0.932501842299,-0.735643100452,1.22732529239,0.0,0.0,0.0,0.297439687302,0.954740610018
1571829643182454109,1571829643182058095,0,0.385403643439,0.876429414266,0.0,0.3,0.0,0.0,0.3,0,30.7164488448,12.1697239407,-7.80562009164,0,-100.242279251,-9.81919641648,-4.17926032048,-2.74272157484,22.6528897177,-0.305792921996,0,66.0616237708,2.29611169921,58.770553982,1.16442307549,36.8333245602,1.07847013997,0,31.0666480916,19.9197319227,-7.64542694037,0,-0.0446517962382,0.209796168338,-0.0129491733669,0.0761592536813,0.376346159991,0.012066708055,-0.891192160209,1.10106727065,0.0,0.0,0.0,0.0,1.0,0,0,,-0.160913539607,0.48617293522,0.0,0.0,0.0,0.264722064045,0.964324752771,-0.479956228281,0.895221469993,0.0,0.0,0.0,0.365400230799,0.930850509659,-0.743859390971,1.22153840022,0.0,0.0,0.0,0.30122815967,0.953552093921
1571829643202501058,1571829643202089071,0,0.373885461028,0.876429414266,0.0,0.3,0.0,0.0,0.3,0,31.153557521,12.2834380576,-7.87471919127,0,-100.171771602,-9.99663685172,-4.19097888854,-2.80918882931,22.6665384325,-0.332404486092,0,66.0616237708,2.29611169921,58.770553982,1.16442307549,36.8333245602,1.07847013997,0,31.5532003962,21.9749462783,-7.70378673431,0,-0.0637598720599,0.245957775247,-0.0170254434106,0.0934254042129,0.503332313317,0.0151408267923,-0.891192160209,1.10106727065,0.0,0.0,0.0,0.0,1.0,0,0,,-0.16305425696,0.485221659048,0.0,0.0,0.0,0.268396676216,0.963308478212,-0.485672933299,0.891425963232,0.0,0.0,0.0,0.369868173551,0.929084244939,-0.75250052973,1.21534850213,0.0,0.0,0.0,0.305232029786,0.952278009823
1571829643222495079,1571829643222054958,0,0.362075981934,0.876429414266,0.0,0.3,0.0,0.0,0.3,0,31.6148284029,12.4022557542,-7.94684765055,0,-100.088447163,-10.1898401077,-4.20788993027,-2.87815167413,22.682631185,-0.361293156312,0,66.0616237708,2.29611169921,58.770553982,1.16442307549,36.8333245602,1.07847013997,0,32.0695417922,24.9885153715,-7.76500580428,0,-0.0981139892886,0.281917495892,-0.0241367872578,0.119028705958,0.726349450564,0.019807481455,-0.891192160209,1.10106727065,0.0,0.0,0.0,0.0,1.0,0,0,,-0.165306564322,0.484204344132,0.0,0.0,0.0,0.27227017937,0.962220842336,-0.491666454077,0.88737732325,0.0,0.0,0.0,0.374564270934,0.927200952836,-0.761552172749,1.20874841381,0.0,0.0,0.0,0.309448126985,0.950916324765
1571829643242511034,1571829643242046117,0,0.35002176555,0.876429414266,0.0,0.3,0.0,0.0,0.3,0,32.0999617741,12.5259300403,-8.02184642459,0,-99.9901631082,-10.3998637091,-4.23198373529,-2.94700234214,22.7015764391,-0.392587880242,0,66.0616237708,2.29611169921,58.770553982,1.16442307549,36.8333245602,1.07847013997,0,32.6159426489,29.9781325868,-7.82893613208,0,-0.176126411511,0.253166194075,-0.0399892701175,0.160953342021,1.21663316827,0.0275032645658,-0.891192160209,1.10106727065,0.0,0.0,0.0,0.0,1.0,0,0,,-0.167667815855,0.483119548411,0.0,0.0,0.0,0.276339310503,0.961060136241,-0.497926375583,0.883071660803,0.0,0.0,0.0,0.379482548276,0.925198895132,-0.770997324403,1.20173227245,0.0,0.0,0.0,0.313872222961,0.949465232462
1571829643262396097,1571829643262048006,0,0.337770336153,0.876429414266,0.0,0.3,0.0,0.0,0.3,0,32.6085301158,12.6541809779,-8.09953680332,0,-99.874407364,-10.6278442488,-4.26459607899,-3.00973784467,22.7238511268,-0.42642171655,0,66.0616237708,2.29611169921,58.770553982,1.16442307549,36.8333245602,1.07847013997,0,33.1925719705,40.2854709242,-7.89541602094,0,-0.483409332186,-1.03140055164,-0.10188374362,0.192146063643,2.75392416637,0.0303312133521,-0.891192160209,1.10106727065,0.0,0.0,0.0,0.0,1.0,0,0,,-0.170134679103,0.481966065232,0.0,0.0,0.0,0.280599692649,0.959824886365,-0.504440365053,0.878506132853,0.0,0.0,0.0,0.384615666006,0.923076805831,-0.780816059057,1.19429595045,0.0,0.0,0.0,0.31849886832,0.947923241027
1571829643282546043,1571829643282089948,0,0.325369995544,0.876429414266,0.0,0.3,0.0,0.0,0.3,0,33.1399570984,12.7866931162,-8.17971903403,0,-99.7382363579,-10.8749940983,-4.29868368334,-3.05120762439,22.7500108352,-0.462929454591,0,66.0616237708,2.29611169921,58.770553982,1.16442307549,36.8333245602,1.07847013997,0,33.7994689175,77.0702542538,-7.96426988941,0,-0.652410387214,4.03536941693,-0.160239747576,-0.745408712377,4.20928069937,-0.114913341404,-0.891192160209,1.10106727065,0.0,0.0,0.0,0.0,1.0,0,0,,-0.172703044625,0.480743000555,0.0,0.0,0.0,0.285045665915,0.95851393748,-0.511193978562,0.87367923132,0.0,0.0,0.0,0.389954747365,0.920834021422,-0.790985246718,1.18643752164,0.0,0.0,0.0,0.323321219246,0.946289273523
1571829643302512884,1571829643302062034,0,0.31286963261,0.876429414266,0.0,0.3,0.0,0.0,0.3,0,33.6934951114,12.9231130302,-8.26217102362,0,-99.3902877138,-11.4319851813,-3.56106364355,-2.79688426701,22.8166659258,-0.54449366838,0,66.0616237708,2.29611169921,58.770553982,1.16442307549,36.8333245602,1.07847013997,0,35.1033653892,-24.2477811775,-8.10832862771,0,0.165088350462,-1.40554610008,0.0225120295572,-0.25101832879,-0.565637491179,-0.0568742527518,-0.891192160209,1.10106727065,0.0,0.0,0.0,0.0,1.0,0,0,,-0.175367933102,0.479449860535,0.0,0.0,0.0,0.289670109147,0.957126547467,-0.518170472465,0.868591105497,0.0,0.0,0.0,0.395489200821,0.918470626658,-0.801478290447,1.17815778027,0.0,0.0,0.0,0.328330856093,0.944562781893
1571829643322494983,1571829643322093009,0,0.300318530583,0.876429414266,0.0,0.3,0.0,0.0,0.3,0,34.2682015447,13.0630470331,-8.34664716061,0,-99.3902877138,-11.4319851813,-3.56106364355,-2.79688426701,22.8166659258,-0.54449366838,0,66.0616237708,2.29611169921,58.770553982,1.16442307549,36.8333245602,1.07847013997,0,35.1033653892,-24.2477811775,-8.10832862771,0,0.120154396432,-0.651789122785,0.0154759281501,-0.102826357717,-0.512454087387,-0.0277491122969,-0.891192160209,1.10106727065,0.0,0.0,0.0,0.0,1.0,0,0,,-0.178123401639,0.478086649573,0.0,0.0,0.0,0.294464254472,0.955662494209,-0.525350625553,0.863243917404,0.0,0.0,0.0,0.401206540221,0.915987615682,-0.812264884743,1.16946081145,0.0,0.0,0.0,0.333517596495,0.942743874458
1571829643342534065,1571829643342093944,0,0.287766172736,0.876429414266,0.0,0.3,0.0,0.0,0.3,0,34.8629141352,13.2060591398,-8.43287730208,0,-99.1697965993,-11.7445449423,3.45940144634,-2.27674678443,22.8587629643,-0.589793094218,0,66.0616237708,2.29611169921,58.770553982,1.16442307549,36.8333245602,1.07847013997,0,35.799460536,-6.67516589019,-8.18311539622,0,0.0773893508055,-0.298182935432,0.00759043898846,-0.0258984570678,-0.314854135119,-0.0130476737858,-0.891192160209,1.10106727065,0.0,0.0,0.0,0.0,1.0,0,0,,-0.180962451533,0.476653978567,0.0,0.0,0.0,0.299417497827,0.954122194478,-0.532712578706,0.857642227757,0.0,0.0,0.0,0.407092206553,0.913387067658,-0.8233108055,1.16035460886,0.0,0.0,0.0,0.338869306427,0.940833456655
1571829643362476110,1571829643362049102,0,0.275262047291,0.876429414266,0.0,0.3,0.0,0.0,0.3,0,35.4762258236,13.3516693716,-8.520565975,0,-98.91129169,-12.0816681165,10.8439395274,-3.72129882777,22.9079670608,-0.638239307143,0,66.0616237708,2.29611169921,58.770553982,1.16442307549,36.8333245602,1.07847013997,0,36.5239134498,3.00966437397,-8.25944205535,0,-0.321771132222,-0.563412482019,-0.0969223867386,-0.950651217091,4.69450793865,-0.170629711305,-0.891192160209,1.10106727065,0.0,0.0,0.0,0.0,1.0,0,0,,-0.183876940238,0.475153182496,0.0,0.0,0.0,0.304517209582,0.952506834132,-0.540231699849,0.851793408164,0.0,0.0,0.0,0.413129396106,0.910672335186,-0.834577743435,1.15085173229,0.0,0.0,0.0,0.344371713692,0.938833383945
1571829643382430076,1571829643382055044,0,0.262855452313,0.876429414266,0.0,0.3,0.0,0.0,0.3,0,36.1064597018,13.4993524974,-8.60939184571,0,-98.6084962883,-12.444727986,10.7614413869,-3.81785099439,22.9653773608,-0.689901019597,0,66.0616237708,2.29611169921,58.770553982,1.16442307549,36.8333245602,1.07847013997,0,37.2754750255,-133.697896388,-8.33707251541,0,-0.81060738186,24.2777335151,-0.171227974821,-0.655697426366,12.0595213487,-0.110685749327,-0.891192160209,1.10106727065,0.0,0.0,0.0,0.0,1.0,0,0,,-0.186857500802,0.473586445798,0.0,0.0,0.0,0.309748550466,0.950818508173,-0.547880482773,0.845708072705,0.0,0.0,0.0,0.419298900846,0.907848242687,-0.846023193885,1.14096999369,0.0,0.0,0.0,0.350008229326,0.936746624976
1571829643402427911,1571829643402061939,0,0.25059530135,0.876429414266,0.0,0.3,0.0,0.0,0.3,0,36.7516448,13.6485373162,-8.69900751425,0,-98.2542209942,-12.8350286974,10.7618305533,-3.83152986248,23.0322151247,-0.744808109204,0,66.0616237708,2.29611169921,58.770553982,1.16442307549,36.8333245602,1.07847013997,0,38.0524540159,-911.22720374,-8.41576347864,0,-0.597666079405,-1.53611033309,-0.118072998445,0.176378107214,2.70670968685,0.0200712246934,-0.891192160209,1.10106727065,0.0,0.0,0.0,0.0,1.0,0,0,,-0.189893472562,0.471956933126,0.0,0.0,0.0,0.315094299176,0.949060368273,-0.555628488974,0.839400519125,0.0,0.0,0.0,0.425578967765,0.904921290608,-0.857600416428,1.13073315569,0.0,0.0,0.0,0.355759783603,0.934577431982
1571829643422411918,1571829643422058105,0,0.238529930585,0.876429414266,0.0,0.3,0.0,0.0,0.3,0,37.4094936271,13.7986065899,-8.78903969184,0,-97.8403109046,-13.2537416307,10.7486600719,-3.69952835365,23.109812101,-0.802939044745,0,66.0616237708,2.29611169921,58.770553982,1.16442307549,36.8333245602,1.07847013997,0,38.8526310944,81.0447575144,-8.49526718631,0,-0.0975585460528,0.148497094155,-0.0252429434466,0.140331653886,0.594107529384,0.0155723776318,-0.891192160209,1.10106727065,0.0,0.0,0.0,0.0,1.0,0,0,,-0.192972847345,0.47026892211,0.0,0.0,0.0,0.320534699259,0.947236774292,-0.56344234191,0.832889166557,0.0,0.0,0.0,0.431945184983,0.901899859835,-0.869258477756,1.1201716214,0.0,0.0,0.0,0.361604684405,0.932331514117
1571829643442394971,1571829643442049980,0,0.226706908275,0.876429414266,0.0,0.3,0.0,0.0,0.3,0,38.0773825622,13.9488977359,-8.87908981989,0,-97.3576347775,-13.7018237241,10.6900112934,-3.4573772374,23.1995843924,-0.864206998786,0,66.0616237708,2.29611169921,58.770553982,1.16442307549,36.8333245602,1.07847013997,0,39.6731600494,27.4313039617,-8.5753345299,0,0.00797077531756,-0.00257055481345,-0.0066218108663,0.0748176895993,0.0512817898812,0.00232872103823,-0.891192160209,1.10106727065,0.0,0.0,0.0,0.0,1.0,0,0,,-0.196082235754,0.468527933612,0.0,0.0,0.0,0.326047334026,0.945353445001,-0.571285782773,0.826196973137,0.0,0.0,0.0,0.43837040316,0.898794408991,-0.88094239039,1.10932308862,0.0,0.0,0.0,0.367518506839,0.930016207993
1571829643462519884,1571829643462049961,0,0.215172847204,0.876429414266,0.0,0.3,0.0,0.0,0.3,0,38.7523363632,14.0987043906,-8.96873518647,0,-96.7961430414,-14.1799154815,10.6676516555,-3.40268537399,23.302986287,-0.928445500822,0,66.0616237708,2.29611169921,58.770553982,1.16442307549,36.8333245602,1.07847013997,0,40.5104553132,14.8342788073,-8.65571834243,0,0.0318645460684,-0.0647323376013,-0.00277404319515,0.0605103215756,-0.0643709921144,-0.00129256585435,-0.891192160209,1.10106727065,0.0,0.0,0.0,0.0,1.0,0,0,,-0.199206858346,0.466740853774,0.0,0.0,0.0,0.331607039305,0.943417601852,-0.579119796076,0.819351813178,0.0,0.0,0.0,0.444824701483,0.89561765556,-0.892593358028,1.09823313596,0.0,0.0,0.0,0.373474023846,0.927640638131
1571829643482420921,1571829643482079029,0,0.203973220918,0.876429414266,0.0,0.3,0.0,0.0,0.3,0,39.4310182157,14.2472789418,-9.05753059146,0,-95.3930542286,-15.2263458117,10.7715001652,-3.81653294705,23.5562209994,-1.06469311491,0,66.0616237708,2.29611169921,58.770553982,1.16442307549,36.8333245602,1.07847013997,0,41.3600657527,11.9487799272,-8.73617658805,0,0.0302042272082,-0.0614716679226,-0.00334241027078,0.0675780870152,-0.0573916870694,-0.00094774008641,-0.891192160209,1.10106727065,0.0,0.0,0.0,0.0,1.0,0,0,,-0.202330566495,0.464916040986,0.0,0.0,0.0,0.33718586463,0.941438098174,-0.586902811784,0.812386790061,0.0,0.0,0.0,0.451275407761,0.892384730007,-0.904149135443,1.08695570293,0.0,0.0,0.0,0.379441188217,0.925215858427
1571829643502760887,1571829643502079963,0,0.193152184434,0.876429414266,0.0,0.3,0.0,0.0,0.3,0,40.1097268593,14.3938361241,-9.14501060362,0,-95.3930542286,-15.2263458117,10.7715001652,-3.81653294705,23.5562209994,-1.06469311491,0,66.0616237708,2.29611169921,58.770553982,1.16442307549,36.8333245602,1.07847013997,0,42.2165359466,12.2761204057,-8.81647506649,0,0.030825456554,-0.0645919619346,-0.00348255094762,0.0726501395043,-0.0620240818705,-0.000982155134999,-0.891192160209,1.10106727065,0.0,0.0,0.0,0.0,1.0,0,0,,-0.205435897435,0.463063409756,0.0,0.0,0.0,0.342753093903,0.939425524786,-0.594590988467,0.805340457949,0.0,0.0,0.0,0.457687182149,0.889113290474,-0.915544506848,1.07555342143,0.0,0.0,0.0,0.385387176657,0.922754964261
1571829643522639036,1571829643522087097,0,0.182752400166,0.876429414266,0.0,0.3,0.0,0.0,0.3,0,40.7844023916,14.5375577432,-9.23069244184,0,-94.5290521804,-15.7931713884,10.8145761269,-4.04065176101,23.7083379763,-1.13586967978,0,66.0616237708,2.29611169921,58.770553982,1.16442307549,36.8333245602,1.07847013997,0,43.0732583499,12.2949079329,-8.89638916819,0,0.0304514432004,-0.0657847069485,-0.00374446706974,0.0783056251397,-0.0631746905011,-0.000899853058733,-0.891192160209,1.10106727065,0.0,0.0,0.0,0.0,1.0,0,0,,-0.208504167419,0.461194482605,0.0,0.0,0.0,0.348275336486,0.937392281809,-0.602138578908,0.798256923313,0.0,0.0,0.0,0.464022173363,0.885823584371,-0.926711881518,1.06409775308,0.0,0.0,0.0,0.391276506267,0.9202731636
1571829643542541027,1571829643542126893,0,0.172814869721,0.876429414266,0.0,0.3,0.0,0.0,0.3,0,41.4506423288,14.6775985793,-9.31407949839,0,-93.5427433729,-16.386650163,10.8618271342,-4.27745348934,23.878334826,-1.20835303587,0,66.0616237708,2.29611169921,58.770553982,1.16442307549,36.8333245602,1.07847013997,0,43.9223231528,12.40387692,-8.97570419031,0,0.0299873808673,-0.0671870920899,-0.00396567126915,0.0836547640937,-0.0649573690836,-0.000836619573619,-0.891192160209,1.10106727065,0.0,0.0,0.0,0.0,1.0,0,0,,-0.211515605966,0.45932240056,0.0,0.0,0.0,0.35371669895,0.935352605643,-0.609498375922,0.791185796449,0.0,0.0,0.0,0.470240255087,0.882538442503,-0.9375819995,1.05266888576,0.0,0.0,0.0,0.397071232873,0.917787794659
1571829643562407970,1571829643562060117,0,0.16337877225,0.876429414266,0.0,0.3,0.0,0.0,0.3,0,42.1037293772,14.8130934803,-9.39466550424,0,-92.4258505905,-17.0036606298,10.9171271444,-4.5297321186,24.0660927623,-1.28148799846,0,66.0616237708,2.29611169921,58.770553982,1.16442307549,36.8333245602,1.07847013997,0,44.7543777425,12.4947956081,-9.05421380019,0,0.0291569619559,-0.0681362054,-0.00418262253721,0.088714340718,-0.0661195853402,-0.000756330753582,-0.891192160209,1.10106727065,0.0,0.0,0.0,0.0,1.0,0,0,,-0.214449532899,0.457461882826,0.0,0.0,0.0,0.359039046204,0.933322539801,-0.616622232,0.784181964245,0.0,0.0,0.0,0.476299348307,0.87928319147,-0.9480847337,1.04135534487,0.0,0.0,0.0,0.402731238946,0.915318277528
1571829643582451105,1571829643582062959,0,0.154481309983,0.876429414266,0.0,0.3,0.0,0.0,0.3,0,42.7386721256,14.9431656224,-9.47193931573,0,-91.1735964641,-17.6398693416,10.979819711,-4.79585508032,24.2706043626,-1.35456974531,0,66.0616237708,2.29611169921,58.770553982,1.16442307549,36.8333245602,1.07847013997,0,45.5585148681,12.5996932056,-9.13171645316,0,0.0280428908983,-0.068713992174,-0.00437203709902,0.0931915693059,-0.0669186071556,-0.000671691402498,-0.891192160209,1.10106727065,0.0,0.0,0.0,0.0,1.0,0,0,,-0.217284578237,0.455629126917,0.0,0.0,0.0,0.364202358335,0.931319838822,-0.623461642047,0.777305158797,0.0,0.0,0.0,0.48215583273,0.876085471266,-0.958149968122,1.03025328043,0.0,0.0,0.0,0.408214616343,0.912885987955
1571829643602497100,1571829643602063894,0,0.146157561555,0.876429414266,0.0,0.3,0.0,0.0,0.3,0,43.3502594761,15.06693587,-9.54539027859,0,-89.7865640502,-18.2896527318,11.0503686977,-5.07471018171,24.4897600372,-1.42689307153,0,66.0616237708,2.29611169921,58.770553982,1.16442307549,36.8333245602,1.07847013997,0,46.3222181703,12.7115563588,-9.20800995855,0,0.0266434397433,-0.0687829680768,-0.00452503285953,0.0968246906541,-0.0671732936608,-0.000582926507064,-0.891192160209,1.10106727065,0.0,0.0,0.0,0.0,1.0,0,0,,-0.219998943149,0.453841642035,0.0,0.0,0.0,0.369165186218,0.929363795983,-0.62996837433,0.770619302444,0.0,0.0,0.0,0.48776504708,0.872974947434,-0.967708526101,1.01946540075,0.0,0.0,0.0,0.413478145711,0.910514043285
1571829643622431039,1571829643622062921,0,0.138440343713,0.876429414266,0.0,0.3,0.0,0.0,0.3,0,43.9331290964,15.1835331192,-9.61451410022,0,-88.2728381008,-18.9461060254,11.1282732336,-5.36412485731,24.7201816144,-1.49781312297,0,66.0616237708,2.29611169921,58.770553982,1.16442307549,36.8333245602,1.07847013997,0,47.0314054119,12.834703303,-9.28288490922,0,0.0250024994042,-0.0682482344971,-0.00462593612305,0.0992920054954,-0.0668184858998,-0.000494893037661,-0.891192160209,1.10106727065,0.0,0.0,0.0,0.0,1.0,0,0,,-0.222570698108,0.452118010973,0.0,0.0,0.0,0.373885204773,0.927474988154,-0.636095131295,0.764191618586,0.0,0.0,0.0,0.49308187414,0.869982910978,-0.976693117861,1.00909953764,0.0,0.0,0.0,0.418477870269,0.908226993706
1571829643642417907,1571829643642062902,0,0.131360081927,0.876429414266,0.0,0.3,0.0,0.0,0.3,0,44.4818495022,15.292105461,-9.67881913557,0,-86.6502253919,-19.6011655882,11.2125272181,-5.66114980586,24.9571470766,-1.56680824091,0,66.0616237708,2.29611169921,58.770553982,1.16442307549,36.8333245602,1.07847013997,0,47.6706223007,12.9705842835,-9.35611823773,0,0.0231705701959,-0.0669885369953,-0.00465882018519,0.100249848545,-0.0657512218227,-0.000412208489564,-0.891192160209,1.10106727065,0.0,0.0,0.0,0.0,1.0,0,0,,-0.224978112328,0.450477579191,0.0,0.0,0.0,0.378319857819,0.925674934942,-0.641796219461,0.758091509132,0.0,0.0,0.0,0.498061402052,0.867141764527,-0.985039274252,0.999266846163,0.0,0.0,0.0,0.42316975687,0.906050416296
1571829643662425994,1571829643662059068,0,0.12494469044,0.876429414266,0.0,0.3,0.0,0.0,0.3,0,44.9910145803,15.391831949,-9.73783296666,0,-84.9482036888,-20.2458547319,11.3012670731,-5.96184608518,25.1946510158,-1.63352968415,0,66.0616237708,2.29611169921,58.770553982,1.16442307549,36.8333245602,1.07847013997,0,48.2234502475,13.1216945038,-9.42746854401,0,0.0212093663854,-0.0648782577328,-0.00460678413194,0.099345632143,-0.0638748464676,-0.000340139760802,-0.891192160209,1.10106727065,0.0,0.0,0.0,0.0,1.0,0,0,,-0.227200006599,0.448940073974,0.0,0.0,0.0,0.382427083081,0.9239856742,-0.647028206707,0.752389213199,0.0,0.0,0.0,0.502659648778,0.864484399796,-0.992686233743,0.990079663608,0.0,0.0,0.0,0.427510432068,0.904010415025
1571829643682441949,1571829643682061910,0,0.119219462216,0.876429414266,0.0,0.3,0.0,0.0,0.3,0,45.4553484942,15.4819347128,-9.791109133,0,-83.2090922207,-20.8706315717,11.3917561702,-6.26125308593,25.4256372128,-1.69781819713,0,66.0616237708,2.29611169921,58.770553982,1.16442307549,36.8333245602,1.07847013997,0,48.6731941582,13.2904492068,-9.49667480668,0,0.0191788427806,-0.061788803285,-0.00445398422588,0.0962504423718,-0.0610885668828,-0.000283587076044,-0.891192160209,1.10106727065,0.0,0.0,0.0,0.0,1.0,0,0,,-0.229216120009,0.447525161483,0.0,0.0,0.0,0.386166100208,0.922429261814,-0.651750546056,0.747154277021,0.0,0.0,0.0,0.506834332186,0.862043479018,-0.999577752846,0.981649076325,0.0,0.0,0.0,0.431457975597,0.902133036361
1571829643702486991,1571829643702060937,0,0.114206969219,0.876429414266,0.0,0.3,0.0,0.0,0.3,0,45.8698180257,15.5616911169,-9.83823385075,0,-81.4878147143,-21.465771883,11.4804241363,-6.55337954154,25.6424235816,-1.75966556758,0,66.0616237708,2.29611169921,58.770553982,1.16442307549,36.8333245602,1.07847013997,0,49.0039026214,13.4794128407,-9.56345940932,0,0.0171238591973,-0.0575991199403,-0.00418776184841,0.0906998601558,-0.0572903481877,-0.000246156006689,-0.891192160209,1.10106727065,0.0,0.0,0.0,0.0,1.0,0,0,,-0.231007479754,0.446251954693,0.0,0.0,0.0,0.389498239305,0.92102721001,-0.655926147645,0.74245388076,0.0,0.0,0.0,0.510545664128,0.859850641007,-1.00566281625,0.974082267278,0.0,0.0,0.0,0.434972748721,0.900443617263
1571829643722569942,1571829643722065925,0,0.109926973424,0.876429414266,0.0,0.3,0.0,0.0,0.3,0,46.2297485786,15.6304456374,-9.87883254427,0,-79.849595388,-22.0216684245,11.5631266005,-6.83128340147,25.837319087,-1.81910231917,0,66.0616237708,2.29611169921,58.770553982,1.16442307549,36.8333245602,1.07847013997,0,49.2017311836,13.6911645735,-9.62753494975,0,0.0150581930702,-0.0522080376042,-0.00380148852397,0.0825435080398,-0.0523748451942,-0.000228828422877,-0.891192160209,1.10106727065,0.0,0.0,0.0,0.0,1.0,0,0,,-0.232556762609,0.445138490244,0.0,0.0,0.0,0.392387782692,0.919799884754,-0.659521884637,0.738351082727,0.0,0.0,0.0,0.513757143632,0.857935660389,-1.01089623121,0.967479739991,0.0,0.0,0.0,0.438018230647,0.89896608925
1571829643742441892,1571829643742085933,0,0.106396348901,0.876429414266,0.0,0.3,0.0,0.0,0.3,0,46.5309393825,15.6876211082,-9.91257600626,0,-78.3650447269,-22.5288893445,11.6356300707,-7.08724931992,26.0034110441,-1.87600212588,0,66.0616237708,2.29611169921,58.770553982,1.16442307549,36.8333245602,1.07847013997,0,49.2565792616,13.9282507806,-9.68861210633,0,0.0129511680713,-0.0455493819551,-0.00329760403428,0.0717961733843,-0.0462310402405,-0.000228519025924,-0.891192160209,1.10106727065,0.0,0.0,0.0,0.0,1.0,0,0,,-0.233848636458,0.444201196621,0.0,0.0,0.0,0.394802789058,0.918765888435,-0.662509024013,0.734903053841,0.0,0.0,0.0,0.516436322117,0.856325595319,-1.01523910066,0.961932533296,0.0,0.0,0.0,0.44056183308,0.897722268429
1571829643762475013,1571829643762062072,0,0.103629015295,0.876429414266,0.0,0.3,0.0,0.0,0.3,0,46.7697729808,15.7327289901,-9.93918600268,0,-77.1023980003,-22.9778408244,11.6943045441,-7.31308538917,26.1354794699,-1.92981102799,0,66.0616237708,2.29611169921,58.770553982,1.16442307549,36.8333245602,1.07847013997,0,49.1638114871,14.1931074594,-9.74640321976,0,0.010722071031,-0.0376074049235,-0.00269026096955,0.0586798202806,-0.0387396903667,-0.000236810371312,-0.891192160209,1.10106727065,0.0,0.0,0.0,0.0,1.0,0,0,,-0.234870070802,0.443454379202,0.0,0.0,0.0,0.39671586713,0.917941458246,-0.664863578626,0.732159383539,0.0,0.0,0.0,0.518555512714,0.855043963919,-1.01865917898,0.957519553798,0.0,0.0,0.0,0.442575661432,0.896731165906
1571829643782465934,1571829643782063961,0,0.101635882939,0.876429414266,0.0,0.3,0.0,0.0,0.3,0,46.9433139301,15.7653783268,-9.95844014713,0,-76.1171965614,-23.3579586096,11.7369100267,-7.50055374748,26.2309649073,-1.97923693408,0,66.0616237708,2.29611169921,58.770553982,1.16442307549,36.8333245602,1.07847013997,0,48.9257366581,14.4879621522,-9.80061389182,0,0.00824727026671,-0.0284294379815,-0.00200672853889,0.0436425201977,-0.0297733006138,-0.000239367237143,-0.891192160209,1.10106727065,0.0,0.0,0.0,0.0,1.0,0,0,,-0.235610606118,0.442909749174,0.0,0.0,0.0,0.398104865895,0.917339912873,-0.666566581933,0.730160541452,0.0,0.0,0.0,0.520092416407,0.854109991978,-1.02113112326,0.954305157378,0.0,0.0,0.0,0.444037191367,0.896008355253
1571829643802455902,1571829643802059888,0,0.100424809845,0.876429414266,0.0,0.3,0.0,0.0,0.3,0,47.0493918358,15.7852830843,-9.97017588616,0,-75.0676147849,-23.8576372126,11.7756411481,-7.73071417019,26.3203297076,-2.05457120512,0,66.0616237708,2.29611169921,58.770553982,1.16442307549,36.8333245602,1.07847013997,0,48.5524180624,14.814679597,-9.85091405407,0,0.00538156412766,-0.0181322209913,-0.00128674955135,0.0273414204166,-0.0192022129308,-0.000216594508995,-0.891192160209,1.10106727065,0.0,0.0,0.0,0.0,1.0,0,0,,-0.23606257337,0.442576022722,0.0,0.0,0.0,0.398953450429,0.916971179695,-0.667604290596,0.728936576222,0.0,0.0,0.0,0.521030639948,0.853537973517,-1.02263665812,0.952337106034,0.0,0.0,0.0,0.444929831491,0.895565433148
1571829643822422981,1571829643822058916,0,0.100000570722,0.876429414266,0.0,0.3,0.0,0.0,0.3,0,47.0866644178,15.7922676169,-9.9742934622,0,-75.0676147849,-23.8576372126,11.7756411481,-7.73071417019,26.3203297076,-2.05457120512,0,66.0616237708,2.29611169921,58.770553982,1.16442307549,36.8333245602,1.07847013997,0,48.0614097598,15.1745127085,-9.8968826448,0,0.00198996978895,-0.00689944263943,-0.000579415604385,0.0105840630149,-0.00691062630453,-0.00014594281339,-0.891192160209,1.10106727065,0.0,0.0,0.0,0.0,1.0,0,0,,-0.236221256674,0.442458614112,0.0,0.0,0.0,0.399251536436,0.916841431576,-0.667968322133,0.72850612348,0.0,0.0,0.0,0.52136008418,0.853336781478,-1.02316467442,0.951645011635,0.0,0.0,0.0,0.445243347026,0.895409605672
1571829643842505931,1571829643842061042,0,0.100364838153,0.876429414266,0.0,0.3,0.0,0.0,0.3,0,47.0546572163,15.7862700634,-9.9707577525,0,-74.9509618563,-23.9417248151,11.7784210554,-7.76226640358,26.3286992038,-2.07261026099,0,66.0616237708,2.29611169921,58.770553982,1.16442307549,36.8333245602,1.07847013997,0,47.4762170537,15.5677217222,-9.93792880063,0,-0.00201865484328,0.00502961485793,6.2234595255e-05,-0.0057653245733,0.00717526825733,-5.79346570717e-06,-0.891192160209,1.10106727065,0.0,0.0,0.0,0.0,1.0,0,0,,-0.236084993987,0.442559441417,0.0,0.0,0.0,0.39899556266,0.916952856464,-0.66765573474,0.728875779749,0.0,0.0,0.0,0.521077186414,0.853509558118,-1.02271128035,0.952239354321,0.0,0.0,0.0,0.444974124988,0.895543426134
1571829643862503051,1571829643862097024,0,0.101516175995,0.876429414266,0.0,0.3,0.0,0.0,0.3,0,46.9537777546,15.7673435507,-9.95959892037,0,-75.0945732446,-23.6733732948,11.7786067814,-7.64817583633,26.3338827748,-2.0462794477,0,66.0616237708,2.29611169921,58.770553982,1.16442307549,36.8333245602,1.07847013997,0,46.8236396697,15.9930483704,-9.97320862939,0,-0.00666606174704,0.0173779314716,0.000588063642226,-0.0208956034364,0.0230484572317,0.000219826645775,-0.891192160209,1.10106727065,0.0,0.0,0.0,0.0,1.0,0,0,,-0.235655212718,0.442876857029,0.0,0.0,0.0,0.398188587835,0.917303574896,-0.666669054525,0.730039878844,0.0,0.0,0.0,0.520185006495,0.8540536043,-1.02127981755,0.954111132066,0.0,0.0,0.0,0.444125268496,0.895964701249
1571829643882421016,1571829643882060050,0,0.10345004505,0.876429414266,0.0,0.3,0.0,0.0,0.3,0,46.7853033709,15.7356551597,-9.94091185577,0,-75.0945732446,-23.6733732948,11.7786067814,-7.64817583633,26.3338827748,-2.0462794477,0,66.0616237708,2.29611169921,58.770553982,1.16442307549,36.8333245602,1.07847013997,0,46.1305284699,16.4470817345,-10.0015762762,0,-0.0118938111138,0.0298515157704,0.000957949719549,-0.0341496206091,0.0405776830248,0.000537005806489,-0.891192160209,1.10106727065,0.0,0.0,0.0,0.0,1.0,0,0,,-0.234936399142,0.443405707371,0.0,0.0,0.0,0.396840207394,0.917887710886,-0.665016252152,0.731980683998,0.0,0.0,0.0,0.518693152865,0.854960474625,-1.01888084737,0.957232161786,0.0,0.0,0.0,0.442706515749,0.896666571761
1571829643902496099,1571829643902059078,0,0.106158820953,0.876429414266,0.0,0.3,0.0,0.0,0.3,0,46.5513433948,15.6914826928,-9.91485442498,0,-75.1032444388,-23.287092941,11.7868537848,-7.50698264833,26.3571726318,-1.99504347473,0,66.0616237708,2.29611169921,58.770553982,1.16442307549,36.8333245602,1.07847013997,0,45.4206825181,16.9236207401,-10.0216181366,0,-0.0175681692971,0.0421599253508,0.00114793554662,-0.0450944876329,0.0594695327649,0.000939549626988,-0.891192160209,1.10106727065,0.0,0.0,0.0,0.0,1.0,0,0,,-0.233936002572,0.444137518007,0.0,0.0,0.0,0.394966294036,0.918695611492,-0.662710667161,0.734668984343,0.0,0.0,0.0,0.5166175518,0.856216272429,-1.01553210272,0.96155601447,0.0,0.0,0.0,0.44073398751,0.89763776227
1571829643922498941,1571829643922060966,0,0.109631824237,0.876429414266,0.0,0.3,0.0,0.0,0.3,0,46.2547777541,15.6352093595,-9.8816445901,0,-74.91482924,-22.7270129491,11.8050200907,-7.31706503513,26.4070290817,-1.91746739849,0,66.0616237708,2.29611169921,58.770553982,1.16442307549,36.8333245602,1.07847013997,0,44.7125442561,17.4131993644,-10.0318017614,0,-0.0234967857282,0.0540341717037,0.00115424091396,-0.0535489986353,0.0792476265832,0.00140921747604,-0.891192160209,1.10106727065,0.0,0.0,0.0,0.0,1.0,0,0,,-0.232664277263,0.44506079258,0.0,0.0,0.0,0.392588574881,0.919714200648,-0.659770874957,0.73806506086,0.0,0.0,0.0,0.513980069678,0.857802126352,-1.01125839364,0.967019530437,0.0,0.0,0.0,0.438229774888,0.89886298422
1571829643942478895,1571829643942061901,0,0.113855362432,0.876429414266,0.0,0.3,0.0,0.0,0.3,0,45.8991753163,15.5673165707,-9.84155649719,0,-74.4605159951,-22.0072949703,11.8336392448,-7.08634757502,26.4865408791,-1.81617431579,0,66.0616237708,2.29611169921,58.770553982,1.16442307549,36.8333245602,1.07847013997,0,44.0180938063,17.9029577361,-10.0307213057,0,-0.0294512020771,0.0652395158673,0.000994120119557,-0.0595666881265,0.0992584679893,0.0019184696165,-0.891192160209,1.10106727065,0.0,0.0,0.0,0.0,1.0,0,0,,-0.231134066996,0.446161407258,0.0,0.0,0.0,0.389734065509,0.920927444581,-0.656220489417,0.742119966412,0.0,0.0,0.0,0.510808004237,0.859694819577,-1.00609144819,0.97354482912,0.0,0.0,0.0,0.435221386405,0.900323466769
1571829643962431907,1571829643962059020,0,0.118812784054,0.876429414266,0.0,0.3,0.0,0.0,0.3,0,45.4886962149,15.4883750959,-9.79491566421,0,-73.7254317,-21.1564447366,11.8712155834,-6.82366820627,26.5933904352,-1.69598116387,0,66.0616237708,2.29611169921,58.770553982,1.16442307549,36.8333245602,1.07847013997,0,43.3430408687,18.3769922308,-10.0173648344,0,-0.0351899453688,0.0755804287933,0.00070305682387,-0.0633827052288,0.118708156638,0.0024348066785,-0.891192160209,1.10106727065,0.0,0.0,0.0,0.0,1.0,0,0,,-0.229360539227,0.447423077375,0.0,0.0,0.0,0.386434387392,0.922316900117,-0.652087893863,0.746777048805,0.0,0.0,0.0,0.507133465817,0.861867534977,-1.00006966848,0.981041703324,0.0,0.0,0.0,0.43174107912,0.901997583478
1571829643982403993,1571829643982063055,0,0.12448454425,0.876429414266,0.0,0.3,0.0,0.0,0.3,0,45.0279830041,15.3990348826,-9.74209342568,0,-72.7435848969,-20.2123478285,11.9149225855,-6.53795550944,26.721321877,-1.56289654916,0,66.0616237708,2.29611169921,58.770553982,1.16442307549,36.8333245602,1.07847013997,0,42.6881224396,18.8172153577,-9.99130811708,0,-0.0404791673514,0.0848968319977,0.000328793337001,-0.0653411263984,0.136726984434,0.00292542393643,-0.891192160209,1.10106727065,0.0,0.0,0.0,0.0,1.0,0,0,,-0.227360877372,0.448827870002,0.0,0.0,0.0,0.382724999426,0.923862313776,-0.647405894997,0.751973635995,0.0,0.0,0.0,0.502992673438,0.864290674755,-0.993237783362,0.989410272418,0.0,0.0,0.0,0.427825102783,0.903861538859
1571829644002429962,1571829644002059936,0,0.130848281855,0.876429414266,0.0,0.3,0.0,0.0,0.3,0,44.5220457128,15.3000138717,-9.68350080841,0,-71.5808213793,-19.2154976776,11.96141256,-6.23757813757,26.8622084215,-1.42304676009,0,66.0616237708,2.29611169921,58.770553982,1.16442307549,36.8333245602,1.07847013997,0,42.0510323269,19.2046500025,-9.952772865,0,-0.0451101683008,0.0930547423228,-7.62885643546e-05,-0.0658237627071,0.15245267071,0.00336104193366,-0.891192160209,1.10106727065,0.0,0.0,0.0,0.0,1.0,0,0,,-0.225153941253,0.450356735414,0.0,0.0,0.0,0.378644376453,0.925542239004,-0.642211298042,0.757642799116,0.0,0.0,0.0,0.498425192845,0.866932712001,-0.985646384523,0.998543763205,0.0,0.0,0.0,0.423512888218,0.905890078052
1571829644022475004,1571829644022062063,0,0.137878907554,0.876429414266,0.0,0.3,0.0,0.0,0.3,0,43.9761457381,15.1920861572,-9.61958202165,0,-70.3144277772,-18.2030073077,12.0075003439,-5.92992569256,27.0079243368,-1.28185513248,0,66.0616237708,2.29611169921,58.770553982,1.16442307549,36.8333245602,1.07847013997,0,41.4283311702,19.5210159153,-9.90254908808,0,-0.0489144143856,0.0999373864219,-0.000462604643481,-0.0651972085208,0.165120151507,0.00371834041335,-0.891192160209,1.10106727065,0.0,0.0,0.0,0.0,1.0,0,0,,-0.222759906745,0.451990031728,0.0,0.0,0.0,0.37423316772,0.927334640881,-0.636544406294,0.763715111702,0.0,0.0,0.0,0.493473144479,0.869761033662,-0.977351341251,1.0083312909,0.0,0.0,0.0,0.418846211497,0.908057184936
1571829644042494058,1571829644042057991,0,0.145548702795,0.876429414266,0.0,0.3,0.0,0.0,0.3,0,43.3956830825,15.0760698362,-9.55080774594,0,-69.0168277139,-17.2049733308,12.0506048858,-5.62121226933,27.1515803459,-1.14360058265,0,66.0616237708,2.29611169921,58.770553982,1.16442307549,36.8333245602,1.07847013997,0,40.816792615,19.7504425249,-9.84183007786,0,-0.0517762548058,0.105442094001,-0.000789319865024,-0.0637831112371,0.174146229925,0.0039811123953,-0.891192160209,1.10106727065,0.0,0.0,0.0,0.0,1.0,0,0,,-0.220199896185,0.453708020031,0.0,0.0,0.0,0.369533366328,0.929217461723,-0.630448453739,0.770120331452,0.0,0.0,0.0,0.488180408554,0.87274273913,-0.96841309868,1.01866052459,0.0,0.0,0.0,0.41386836398,0.910336738408
1571829644062441110,1571829644062058925,0,0.153827429074,0.876429414266,0.0,0.3,0.0,0.0,0.3,0,42.7860907677,14.9528148819,-9.47766839755,0,-67.746410795,-16.2433137138,12.0889446488,-5.31645328537,27.2880693776,-1.01131392589,0,66.0616237708,2.29611169921,58.770553982,1.16442307549,36.8333245602,1.07847013997,0,40.2140168328,19.8811291584,-9.77202328884,0,-0.0536421574271,0.109485116451,-0.00102826691606,-0.0618462007607,0.179198249639,0.00414064114107,-0.891192160209,1.10106727065,0.0,0.0,0.0,0.0,1.0,0,0,,-0.217495611034,0.455491311584,0.0,0.0,0.0,0.364587517271,0.931169126555,-0.623968984612,0.776788943017,0.0,0.0,0.0,0.482591852339,0.875845365379,-0.958895874253,1.02942013999,0.0,0.0,0.0,0.408623355337,0.912703102588
1571829644082405090,1571829644082061052,0,0.162682447147,0.876429414266,0.0,0.3,0.0,0.0,0.3,0,42.1527394383,14.8231913391,-9.40066753224,0,-66.5446968183,-15.3323243128,12.121545662,-5.01955334366,27.414095458,-0.886895377823,0,66.0616237708,2.29611169921,58.770553982,1.16442307549,36.8333245602,1.07847013997,0,39.618500757,19.9067436025,-9.69458651489,0,-0.0545242847649,0.112013535702,-0.00116570996189,-0.0595919848134,0.18023569559,0.0041956963015,-0.891192160209,1.10106727065,0.0,0.0,0.0,0.0,1.0,0,0,,-0.214668977623,0.45732125373,0.0,0.0,0.0,0.359437986974,0.933168973723,-0.617153197942,0.783653514914,0.0,0.0,0.0,0.476752601559,0.879037517349,-0.948866775573,1.04050198467,0.0,0.0,0.0,0.403155172425,0.915131633672
1571829644102443933,1571829644102060079,0,0.172078845717,0.876429414266,0.0,0.3,0.0,0.0,0.3,0,41.5008542805,14.6880781073,-9.32031553253,0,-65.4374845163,-14.4800635701,12.1481354918,-4.73344846471,27.5279121725,-0.771335978764,0,66.0616237708,2.29611169921,58.770553982,1.16442307549,36.8333245602,1.07847013997,0,39.0294640348,19.8273135213,-9.61091343281,0,-0.0544964854687,0.11302111117,-0.00120197061193,-0.0571691471274,0.177514339517,0.00415219612027,-0.891192160209,1.10106727065,0.0,0.0,0.0,0.0,1.0,0,0,,-0.211741815641,0.459180246298,0.0,0.0,0.0,0.354126311855,0.935197602249,-0.610049277857,0.79064983942,0.0,0.0,0.0,0.470707373764,0.882289390327,-0.938394869078,1.0518029054,0.0,0.0,0.0,0.397507112027,0.917599093225
1571829644122500896,1571829644122080087,0,0.181979579067,0.876429414266,0.0,0.3,0.0,0.0,0.3,0,40.8354455094,14.5483525284,-9.23712370027,0,-64.4378085887,-13.6899253906,12.1689830427,-4.46026029646,27.6289534715,-0.664959118074,0,66.0616237708,2.29611169921,58.770553982,1.16442307549,36.8333245602,1.07847013997,0,38.4466386238,19.6493712694,-9.52227035599,0,-0.0536822731045,0.112562777876,-0.00114909844973,-0.0546752243924,0.171547529293,0.00402234294761,-0.891192160209,1.10106727065,0.0,0.0,0.0,0.0,1.0,0,0,,-0.208735537367,0.461051985242,0.0,0.0,0.0,0.348692637827,0.937237133454,-0.602705731328,0.797717839703,0.0,0.0,0.0,0.464499887136,0.88557317871,-0.927550232363,1.06322621113,0.0,0.0,0.0,0.391721200111,0.920083964312
1571829644142455101,1571829644142060995,0,0.192345613122,0.876429414266,0.0,0.3,0.0,0.0,0.3,0,40.1612528737,14.4048809471,-9.15159885119,0,-62.7691727267,-12.2945125696,12.1961916422,-3.95786597021,27.7942207779,-0.47895564827,0,66.0616237708,2.29611169921,58.770553982,1.16442307549,36.8333245602,1.07847013997,0,37.8701055786,19.3852114404,-9.42977329308,0,-0.0522365131927,0.110761438188,-0.00102708266336,-0.0521654707208,0.163029032008,0.00382307254743,-0.891192160209,1.10106727065,0.0,0.0,0.0,0.0,1.0,0,0,,-0.205670883722,0.46292163457,0.0,0.0,0.0,0.34317525716,0.939271389362,-0.595170754256,0.804802242359,0.0,0.0,0.0,0.458172353542,0.888863372206,-0.916403023345,1.07468276699,0.0,0.0,0.0,0.385837705107,0.92256667256
1571829644162554979,1571829644162106037,0,0.203136079335,0.876429414266,0.0,0.3,0.0,0.0,0.3,0,39.4827039412,14.2585103643,-9.06423848249,0,-62.0907333008,-11.6840748116,12.2042781995,-3.72997207548,27.8602462301,-0.398351933393,0,66.0616237708,2.29611169921,58.770553982,1.16442307549,36.8333245602,1.07847013997,0,37.3001897461,19.0513175615,-9.33439071403,0,-0.0503244511618,0.10780227091,-0.000859427828903,-0.0496643185688,0.152732987035,0.00357389875472,-0.891192160209,1.10106727065,0.0,0.0,0.0,0.0,1.0,0,0,,-0.202567701164,0.464775931067,0.0,0.0,0.0,0.337610244187,0.941285994276,-0.587491644505,0.811853025219,0.0,0.0,0.0,0.451765060308,0.892136945926,-0.905022597241,1.08609173323,0.0,0.0,0.0,0.379894747833,0.925029718749
1571829644182610988,1571829644182073116,0,0.214308435819,0.876429414266,0.0,0.3,0.0,0.0,0.3,0,38.8038853822,14.1100612525,-8.9755265592,0,-61.5051063179,-11.1268795291,12.209819457,-3.51778857025,27.916699884,-0.325187765133,0,66.0616237708,2.29611169921,58.770553982,1.16442307549,36.8333245602,1.07847013997,0,36.7373973651,18.6662475115,-9.23695930944,0,-0.0481024842625,0.103914177541,-0.00066904782825,-0.0471777877431,0.141413489962,0.00329451521619,-0.891192160209,1.10106727065,0.0,0.0,0.0,0.0,1.0,0,0,,-0.199444761374,0.466603228856,0.0,0.0,0.0,0.33203118708,0.943268408676,-0.579714277019,0.818825659282,0.0,0.0,0.0,0.445316041166,0.895373454755,-0.893476697894,1.09738097736,0.0,0.0,0.0,0.373928006507,0.927457732703
1571829644202455997,1571829644202063083,0,0.225818635066,0.876429414266,0.0,0.3,0.0,0.0,0.3,0,38.1285260674,13.9603215635,-8.8859299419,0,-61.5051063179,-11.1268795291,12.209819457,-3.51778857025,27.916699884,-0.325187765133,0,66.0616237708,2.29611169921,58.770553982,1.16442307549,36.8333245602,1.07847013997,0,36.1823783896,18.2484311887,-9.1382039859,0,-0.0457042947266,0.0993431163998,-0.000475257599941,-0.0447046180074,0.129725240261,0.0030026539477,-0.891192160209,1.10106727065,0.0,0.0,0.0,0.0,1.0,0,0,,-0.196319623789,0.468393492448,0.0,0.0,0.0,0.32646900958,0.945207906116,-0.571882652109,0.82568116981,0.0,0.0,0.0,0.438860833499,0.898555044959,-0.881830744163,1.10848719774,0.0,0.0,0.0,0.367970511844,0.929837460212
1571829644222413063,1571829644222060918,0,0.237621297609,0.876429414266,0.0,0.3,0.0,0.0,0.3,0,37.4599905378,13.8100419142,-8.79589545694,0,-61.0025350239,-10.6188034806,12.213526675,-3.32103066883,27.9647439817,-0.258811728963,0,66.0616237708,2.29611169921,58.770553982,1.16442307549,36.8333245602,1.07847013997,0,35.6358998054,17.814343289,-9.03875715225,0,-0.043233997693,0.0943250198615,-0.00029222692044,-0.0422442669512,0.118178020525,0.00271262887708,-0.891192160209,1.10106727065,0.0,0.0,0.0,0.0,1.0,0,0,,-0.193208539412,0.470138247662,0.0,0.0,0.0,0.320951874118,0.947095504424,-0.564038523614,0.832386045172,0.0,0.0,0.0,0.432432316262,0.901666397207,-0.870147225593,1.11935580303,0.0,0.0,0.0,0.362052524663,0.932157695557
1571829644242526054,1571829644242062091,0,0.249669890933,0.876429414266,0.0,0.3,0.0,0.0,0.3,0,36.8012812743,13.6599319086,-8.70584759298,0,-60.5732035146,-10.1557243904,12.2159554848,-3.13916489685,28.0054841493,-0.198591781419,0,66.0616237708,2.29611169921,58.770553982,1.16442307549,36.8333245602,1.07847013997,0,35.0988219165,17.3773611145,-8.93917512445,0,-0.0407657639978,0.0890652324448,-0.000128797705834,-0.0398010167935,0.107126021431,0.00243474171935,-0.891192160209,1.10106727065,0.0,0.0,0.0,0.0,1.0,0,0,,-0.190126392992,0.471830499862,0.0,0.0,0.0,0.31550515617,0.948923862294,-0.556221109481,0.838912023233,0.0,0.0,0.0,0.426060621051,0.904694615431,-0.858485215019,1.12994059376,0.0,0.0,0.0,0.356201486672,0.934409172093
1571829644262418031,1571829644262058973,0,0.261916912926,0.876429414266,0.0,0.3,0.0,0.0,0.3,0,36.1550481666,13.5106575266,-8.61618679209,0,-60.2077472403,-9.73367698738,12.2175084455,-2.9714786955,28.0399342461,-0.143934181743,0,66.0616237708,2.29611169921,58.770553982,1.16442307549,36.8333245602,1.07847013997,0,34.5720741649,16.9473787777,-8.8399511355,0,-0.0383478855115,0.0837278605226,1.07532427407e-05,-0.0373846563928,0.0967835978027,0.00217545639281,-0.891192160209,1.10106727065,0.0,0.0,0.0,0.0,1.0,0,0,,-0.18708667972,0.473464628457,0.0,0.0,0.0,0.310151478939,0.950687151545,-0.548466883596,0.845235784424,0.0,0.0,0.0,0.419773107494,0.907629075242,-0.846899999732,1.14020329206,0.0,0.0,0.0,0.350442034106,0.93658442264
1571829644282514095,1571829644282071113,0,0.274314079167,0.876429414266,0.0,0.3,0.0,0.0,0.3,0,35.5236036337,13.3628394911,-8.52728829333,0,-59.8975374971,-9.34894031334,12.2184588564,-2.81714596589,28.0690010039,-0.0942926465356,0,66.0616237708,2.29611169921,58.770553982,1.16442307549,36.8333245602,1.07847013997,0,34.0566299659,16.531035727,-8.74152525596,0,-0.0360088367568,0.0784344425853,0.000125517674032,-0.0350089701451,0.0872550753872,0.00193806579674,-0.891192160209,1.10106727065,0.0,0.0,0.0,0.0,1.0,0,0,,-0.184101511957,0.475036265742,0.0,0.0,0.0,0.304910797293,0.95238091418,-0.540809444583,0.851338578574,0.0,0.0,0.0,0.413594393486,0.910461244467,-0.83544282765,1.15011296217,0.0,0.0,0.0,0.344796063572,0.938677620137
1571829644302486896,1571829644302088975,0,0.286812513281,0.876429414266,0.0,0.3,0.0,0.0,0.3,0,34.9089419667,13.2170525121,-8.4395014778,0,-59.6348129438,-8.99807985162,12.2189830977,-2.6752837891,28.0934811706,-0.0491713816932,0,66.0616237708,2.29611169921,58.770553982,1.16442307549,36.8333245602,1.07847013997,0,33.5534815043,16.132307243,-8.64429182915,0,-0.0337633698555,0.0732688820726,0.000216739581838,-0.0326893893288,0.0785674683534,0.00172354519545,-0.891192160209,1.10106727065,0.0,0.0,0.0,0.0,1.0,0,0,,-0.181181651219,0.47654216705,0.0,0.0,0.0,0.29980052033,0.954001911953,-0.533279454997,0.857205809616,0.0,0.0,0.0,0.407546430714,0.913184486734,-0.824160760841,1.1596453602,0.0,0.0,0.0,0.339282839674,0.940684407601
1571829644322472095,1571829644322065114,0,0.3,0.844481500369,0.0,0.3,0.0,0.0,0.3,0,33.0333445163,13.0666378168,-8.34881353695,0,-59.4127121994,-8.67796092672,12.2191917586,-2.54499709716,28.1140660441,-0.00812446638305,0,66.0616237708,2.29611169921,58.770553982,1.16442307549,36.8333245602,1.07847013997,0,33.0636158926,15.7532084433,-8.54860505095,0,-0.0343663959623,0.0727010670665,0.000251556919739,-0.0304956779829,0.0730939351046,0.00168546621104,-0.891192160209,1.10106727065,0.0,0.0,0.0,0.0,1.0,0,0,,-0.172188565231,0.480989816152,0.0,0.0,0.0,0.284154222003,0.958778586598,-0.511053196112,0.873523651645,0.0,0.0,0.0,0.391346456046,0.920243419613,-0.791318593763,1.18583715382,0.0,0.0,0.0,0.323356195225,0.946277322464
1571829644342422962,1571829644342063903,0,0.312551745856,0.844481500369,0.0,0.3,0.0,0.0,0.3,0,32.4790838226,12.9266201801,-8.26428947296,0,-59.2257668405,-8.37183035516,12.2227673949,-2.42132282115,28.1333444505,0.0309416105889,0,66.0616237708,2.29611169921,58.770553982,1.16442307549,36.8333245602,1.07847013997,0,31.2918193472,15.4999747544,-8.45482710079,0,-0.0306690637553,0.0650829699356,0.00026147519705,-0.0266543658922,0.0637429772077,0.00148363548114,-0.891192160209,1.10106727065,0.0,0.0,0.0,0.0,1.0,0,0,,-0.169507613924,0.482261239933,0.0,0.0,0.0,0.27951581478,0.96014108822,-0.504003965657,0.878564017806,0.0,0.0,0.0,0.385766642659,0.922596389226,-0.780703966297,1.19405062467,0.0,0.0,0.0,0.318318952945,0.947983672958
1571829644362535953,1571829644362059116,0,0.325054005902,0.844481500369,0.0,0.3,0.0,0.0,0.3,0,31.9451942263,12.7901061061,-8.1817830124,0,-59.0514689547,-8.1056921592,12.2205359528,-2.3107854974,28.1476761587,0.0650438385866,0,66.0616237708,2.29611169921,58.770553982,1.16442307549,36.8333245602,1.07847013997,0,30.9378512431,15.0767248151,-8.35916308596,0,-0.0285609239814,0.0598150438291,0.000333187299972,-0.0250050447459,0.0564256351199,0.00127655257476,-0.891192160209,1.10106727065,0.0,0.0,0.0,0.0,1.0,0,0,,-0.166915377632,0.48346727119,0.0,0.0,0.0,0.275041707752,0.961432295587,-0.497157554242,0.883360181034,0.0,0.0,0.0,0.380365279156,0.924836339258,-0.770383139809,1.20187004028,0.0,0.0,0.0,0.313453746974,0.94960346909
1571829644382496118,1571829644382074117,0,0.337457489426,0.844481500369,0.0,0.3,0.0,0.0,0.3,0,31.4325890485,12.6574903304,-8.10154037714,0,-58.8095317972,-7.64117662401,12.2187952841,-2.11826969081,28.1696808088,0.124154345059,0,66.0616237708,2.29611169921,58.770553982,1.16442307549,36.8333245602,1.07847013997,0,30.5041889475,14.7312331909,-8.26946356177,0,-0.0265851565762,0.0552331190562,0.000366237673521,-0.0231663699557,0.0505159922337,0.00112628362192,-0.891192160209,1.10106727065,0.0,0.0,0.0,0.0,1.0,0,0,,-0.164417553773,0.484607913846,0.0,0.0,0.0,0.270740355092,0.962652408777,-0.490532436352,0.887910122647,0.0,0.0,0.0,0.375154525785,0.926962287142,-0.760385263856,1.20929157764,0.0,0.0,0.0,0.308770440917,0.95113659104
1571829644402460098,1571829644402059078,0,0.34971329515,0.844481500369,0.0,0.3,0.0,0.0,0.3,0,30.9419931254,12.5291272716,-8.02378424279,0,-58.8095317972,-7.64117662401,12.2187952841,-2.11826969081,28.1696808088,0.124154345059,0,66.0616237708,2.29611169921,58.770553982,1.16442307549,36.8333245602,1.07847013997,0,30.0932069246,14.4245342837,-8.18289774386,0,-0.0247376724882,0.0510385645747,0.000383153542227,-0.0213921970582,0.0453763337793,0.000999782034938,-0.891192160209,1.10106727065,0.0,0.0,0.0,0.0,1.0,0,0,,-0.162018902506,0.485683636986,0.0,0.0,0.0,0.266618615877,0.963802113334,-0.484144657348,0.89221372159,0.0,0.0,0.0,0.370144693746,0.928974114651,-0.750735844166,1.21631452181,0.0,0.0,0.0,0.304277185229,0.952583536782
1571829644422422885,1571829644422061920,0,0.36177310402,0.844481500369,0.0,0.3,0.0,0.0,0.3,0,30.4739656904,12.4053333139,-7.94871491301,0,-58.7165079489,-7.43840764857,12.2180791722,-2.03403570559,28.1780415134,0.149875699711,0,66.0616237708,2.29611169921,58.770553982,1.16442307549,36.8333245602,1.07847013997,0,29.6991605683,14.1414189331,-8.09924766442,0,-0.022991735249,0.0471206105246,0.000390208598766,-0.0197102639543,0.0407957257975,0.000889062601317,-0.891192160209,1.10106727065,0.0,0.0,0.0,0.0,1.0,0,0,,-0.159723339338,0.486695283117,0.0,0.0,0.0,0.262681934392,0.964882480587,-0.478008014457,0.896272418849,0.0,0.0,0.0,0.365344421328,0.930872415428,-0.7414569912,1.22294072622,0.0,0.0,0.0,0.299980599467,0.953945302385
1571829644442503929,1571829644442059993,0,0.373589369708,0.844481500369,0.0,0.3,0.0,0.0,0.3,0,30.0289220581,12.2863892645,-7.87651161474,0,-58.638593339,-7.25307931942,12.2172920729,-1.95687434043,28.1849906062,0.173351326492,0,66.0616237708,2.29611169921,58.770553982,1.16442307549,36.8333245602,1.07847013997,0,29.3226142687,13.8767910079,-8.01863411682,0,-0.0213362938206,0.0434402764204,0.000390213872326,-0.0181259094623,0.0366792189732,0.000790920173799,-0.891192160209,1.10106727065,0.0,0.0,0.0,0.0,1.0,0,0,,-0.157534026636,0.487643986283,0.0,0.0,0.0,0.258934513393,0.965894879256,-0.472134246773,0.900088913122,0.0,0.0,0.0,0.360760847674,0.932658356948,-0.732567686809,1.22917412184,0.0,0.0,0.0,0.295885949056,0.955223275026
1571829644462500095,1571829644462058067,0,0.385115506067,0.844481500369,0.0,0.3,0.0,0.0,0.3,0,29.6071539048,12.1725429168,-7.80733387414,0,-58.5734755152,-7.0837351797,12.2164287517,-1.88622340015,28.1907457192,0.194775598125,0,66.0616237708,2.29611169921,58.770553982,1.16442307549,36.8333245602,1.07847013997,0,28.9641338924,13.6286501632,-7.94120704152,0,-0.019765014847,0.0399783020577,0.000384833909184,-0.0166382796207,0.0329668297994,0.000703486535691,-0.891192160209,1.10106727065,0.0,0.0,0.0,0.0,1.0,0,0,,-0.155453462366,0.488531099887,0.0,0.0,0.0,0.255379478141,0.966840898051,-0.466533228734,0.903666888375,0.0,0.0,0.0,0.356399781216,0.934333557114,-0.724084060277,1.23502027655,0.0,0.0,0.0,0.291997314075,0.956419138544
1571829644482460975,1571829644482064962,0,0.396306070797,0.844481500369,0.0,0.3,0.0,0.0,0.3,0,29.2088480219,12.0640116604,-7.7413229381,0,-58.5191984573,-6.92907636643,12.2155000666,-1.82158282457,28.1954912445,0.21432071187,0,66.0616237708,2.29611169921,58.770553982,1.16442307549,36.8333245602,1.07847013997,0,28.6241933615,13.3958865172,-7.8671035972,0,-0.0182726540787,0.0367200639784,0.000375258379925,-0.0152439541212,0.0296111680287,0.000625362095441,-0.891192160209,1.10106727065,0.0,0.0,0.0,0.0,1.0,0,0,,-0.153483564816,0.48935813384,0.0,0.0,0.0,0.252019029778,0.967722278668,-0.461213162565,0.907010772767,0.0,0.0,0.0,0.35226586063,0.935899975123,-0.716019666439,1.24048600421,0.0,0.0,0.0,0.288317748322,0.957534791014
1571829644502954006,1571829644502105951,0,0.407116944604,0.844481500369,0.0,0.3,0.0,0.0,0.3,0,28.834103488,11.9609850862,-7.67860321106,0,-58.4741060505,-6.78794492242,12.2145198658,-1.76250328551,28.1993831103,0.232139418514,0,66.0616237708,2.29611169921,58.770553982,1.16442307549,36.8333245602,1.07847013997,0,28.3032010767,13.1776594874,-7.79644393922,0,-0.0168542377055,0.0336518983679,0.000362413365984,-0.0139382856812,0.0265713627989,0.000555376167277,-0.891192160209,1.10106727065,0.0,0.0,0.0,0.0,1.0,0,0,,-0.151625752423,0.490126700402,0.0,0.0,0.0,0.248854587177,0.968540858426,-0.45618076606,0.910125527608,0.0,0.0,0.0,0.348362706739,0.937359815948,-0.708385759953,1.24557902149,0.0,0.0,0.0,0.284849427515,0.958572273563
1571829644522633075,1571829644522098064,0,0.417505505143,0.844481500369,0.0,0.3,0.0,0.0,0.3,0,28.4829472559,11.8636275462,-7.6192836819,0,-58.4367956552,-6.65930895566,12.2135018643,-1.7085805772,28.2025532771,0.248367255122,0,66.0616237708,2.29611169921,58.770553982,1.16442307549,36.8333245602,1.07847013997,0,28.0015047998,12.9732358885,-7.72933206266,0,-0.0155048811235,0.0307604137051,0.000347035988835,-0.0127159198948,0.0238112962458,0.000492517626682,-0.891192160209,1.10106727065,0.0,0.0,0.0,0.0,1.0,0,0,,-0.149881018107,0.490838468008,0.0,0.0,0.0,0.245886916888,0.969298521666,-0.451441452943,0.91301646442,0.0,0.0,0.0,0.344693064333,0.938715447514,-0.701191561077,1.25030764955,0.0,0.0,0.0,0.281593786013,0.959533709506
1571829644542524099,1571829644542089939,0,0.427430795055,0.844481500369,0.0,0.3,0.0,0.0,0.3,0,28.1553481889,11.7720806347,-7.56345931961,0,-58.4060783277,-6.54224942652,12.2124590092,-1.6594515574,28.2051136084,0.263124480959,0,66.0616237708,2.29611169921,58.770553982,1.16442307549,36.8333245602,1.07847013997,0,27.7193979488,12.7819490964,-7.66585724422,0,-0.0142197589037,0.0280324871316,0.000329713356617,-0.0115710752979,0.0212988767734,0.000435907954177,-0.891192160209,1.10106727065,0.0,0.0,0.0,0.0,1.0,0,0,,-0.148249997826,0.491495122301,0.0,0.0,0.0,0.243116251154,0.969997158978,-0.446999503766,0.915689087817,0.0,0.0,0.0,0.341258933353,0.939969329503,-0.694444509422,1.25468055714,0.0,0.0,0.0,0.278551641828,0.960421252802
